xof 0303txt 0032
template Vector {
 <3d82ab5e-62da-11cf-ab39-0020af71e433>
 FLOAT x;
 FLOAT y;
 FLOAT z;
}

template MeshFace {
 <3d82ab5f-62da-11cf-ab39-0020af71e433>
 DWORD nFaceVertexIndices;
 array DWORD faceVertexIndices[nFaceVertexIndices];
}

template Mesh {
 <3d82ab44-62da-11cf-ab39-0020af71e433>
 DWORD nVertices;
 array Vector vertices[nVertices];
 DWORD nFaces;
 array MeshFace faces[nFaces];
 [...]
}

template MeshNormals {
 <f6f23f43-7686-11cf-8f52-0040333594a3>
 DWORD nNormals;
 array Vector normals[nNormals];
 DWORD nFaceNormals;
 array MeshFace faceNormals[nFaceNormals];
}

template FVFData {
 <b6e70a0e-8ef9-4e83-94ad-ecc8b0c04897>
 DWORD dwFVF;
 DWORD nDWords;
 array DWORD data[nDWords];
}


Mesh {
 4;
 0.500000;0.500000;0.000000;,
 -0.500000;0.500000;0.000000;,
 -0.500000;-0.500000;0.000000;,
 0.500000;-0.500000;0.000000;;
 2;
 3;2,1,0;,
 3;2,0,3;;

 MeshNormals {
  4;
  0.000000;0.000000;-1.000000;,
  0.000000;0.000000;-1.000000;,
  0.000000;0.000000;-1.000000;,
  0.000000;0.000000;-1.000000;;
  2;
  3;2,1,0;,
  3;2,0,3;;
 }

 FVFData {
  65794;
  12;
  1065353216,
  0,
  0,
  0,
  0,
  0,
  0,
  1065353216,
  0,
  1065353216,
  1065353216,
  0;
 }
}