xof 0303txt 0032
template Vector {
 <3d82ab5e-62da-11cf-ab39-0020af71e433>
 FLOAT x;
 FLOAT y;
 FLOAT z;
}

template MeshFace {
 <3d82ab5f-62da-11cf-ab39-0020af71e433>
 DWORD nFaceVertexIndices;
 array DWORD faceVertexIndices[nFaceVertexIndices];
}

template Mesh {
 <3d82ab44-62da-11cf-ab39-0020af71e433>
 DWORD nVertices;
 array Vector vertices[nVertices];
 DWORD nFaces;
 array MeshFace faces[nFaces];
 [...]
}

template MeshNormals {
 <f6f23f43-7686-11cf-8f52-0040333594a3>
 DWORD nNormals;
 array Vector normals[nNormals];
 DWORD nFaceNormals;
 array MeshFace faceNormals[nFaceNormals];
}

template FVFData {
 <b6e70a0e-8ef9-4e83-94ad-ecc8b0c04897>
 DWORD dwFVF;
 DWORD nDWords;
 array DWORD data[nDWords];
}


Mesh {
 456;
 1.080000;-1.781948;-1.240215;,
 -1.080000;-1.781948;-1.240215;,
 -1.080000;-1.800000;-1.080000;,
 1.080000;-1.800000;-1.080000;,
 1.080000;-1.728698;-1.392396;,
 -1.080000;-1.728698;-1.392396;,
 1.080000;-1.642919;-1.528913;,
 -1.080000;-1.642919;-1.528913;,
 1.080000;-1.528913;-1.642919;,
 -1.080000;-1.528913;-1.642919;,
 1.080000;-1.392396;-1.728698;,
 -1.080000;-1.392396;-1.728698;,
 1.080000;-1.240215;-1.781948;,
 -1.080000;-1.240215;-1.781948;,
 1.080000;-1.080000;-1.800000;,
 -1.080000;-1.080000;-1.800000;,
 1.080000;1.080000;-1.800000;,
 -1.080000;1.080000;-1.800000;,
 1.080000;1.240215;-1.781948;,
 -1.080000;1.240215;-1.781948;,
 1.080000;1.392396;-1.728698;,
 -1.080000;1.392396;-1.728698;,
 1.080000;1.528913;-1.642919;,
 -1.080000;1.528913;-1.642919;,
 1.080000;1.642919;-1.528913;,
 -1.080000;1.642919;-1.528913;,
 1.080000;1.728698;-1.392396;,
 -1.080000;1.728698;-1.392396;,
 1.080000;1.781948;-1.240215;,
 -1.080000;1.781948;-1.240215;,
 1.080000;1.800000;-1.080000;,
 -1.080000;1.800000;-1.080000;,
 1.115651;-1.781948;-1.236198;,
 1.149515;-1.728698;-1.384564;,
 1.179892;-1.642919;-1.517657;,
 1.205261;-1.528913;-1.628805;,
 1.224349;-1.392396;-1.712433;,
 1.236198;-1.240215;-1.764349;,
 1.240215;-1.080000;-1.781948;,
 1.240215;1.080000;-1.781948;,
 1.236198;1.240215;-1.764349;,
 1.224349;1.392396;-1.712433;,
 1.205261;1.528913;-1.628805;,
 1.179892;1.642919;-1.517657;,
 1.149515;1.728698;-1.384564;,
 1.115651;1.781948;-1.236198;,
 1.149515;-1.781948;-1.224349;,
 1.215544;-1.728698;-1.361459;,
 1.274776;-1.642919;-1.484456;,
 1.324241;-1.528913;-1.587172;,
 1.361459;-1.392396;-1.664456;,
 1.384564;-1.240215;-1.712433;,
 1.392396;-1.080000;-1.728698;,
 1.392396;1.080000;-1.728698;,
 1.384564;1.240215;-1.712433;,
 1.361459;1.392396;-1.664456;,
 1.324241;1.528913;-1.587172;,
 1.274776;1.642919;-1.484456;,
 1.215544;1.728698;-1.361459;,
 1.149515;1.781948;-1.224349;,
 1.179892;-1.781948;-1.205261;,
 1.274776;-1.728698;-1.324241;,
 1.359892;-1.642919;-1.430974;,
 1.430974;-1.528913;-1.520108;,
 1.484456;-1.392396;-1.587172;,
 1.517658;-1.240215;-1.628805;,
 1.528913;-1.080000;-1.642919;,
 1.528913;1.080000;-1.642919;,
 1.517658;1.240215;-1.628805;,
 1.484456;1.392396;-1.587172;,
 1.430974;1.528913;-1.520108;,
 1.359892;1.642919;-1.430974;,
 1.274776;1.728698;-1.324241;,
 1.179892;1.781948;-1.205261;,
 1.205261;-1.781948;-1.179892;,
 1.324241;-1.728698;-1.274776;,
 1.430974;-1.642919;-1.359892;,
 1.520108;-1.528913;-1.430974;,
 1.587172;-1.392396;-1.484456;,
 1.628805;-1.240215;-1.517657;,
 1.642919;-1.080000;-1.528913;,
 1.642919;1.080000;-1.528913;,
 1.628805;1.240215;-1.517657;,
 1.587172;1.392396;-1.484456;,
 1.520108;1.528913;-1.430974;,
 1.430974;1.642919;-1.359892;,
 1.324241;1.728698;-1.274776;,
 1.205261;1.781948;-1.179892;,
 1.224349;-1.781948;-1.149515;,
 1.361459;-1.728698;-1.215544;,
 1.484456;-1.642919;-1.274776;,
 1.587172;-1.528913;-1.324241;,
 1.664456;-1.392396;-1.361459;,
 1.712433;-1.240215;-1.384564;,
 1.728698;-1.080000;-1.392396;,
 1.728698;1.080000;-1.392396;,
 1.712433;1.240215;-1.384564;,
 1.664456;1.392396;-1.361459;,
 1.587172;1.528913;-1.324241;,
 1.484456;1.642919;-1.274776;,
 1.361459;1.728698;-1.215544;,
 1.224349;1.781948;-1.149515;,
 1.236198;-1.781948;-1.115651;,
 1.384564;-1.728698;-1.149515;,
 1.517657;-1.642919;-1.179892;,
 1.628805;-1.528913;-1.205261;,
 1.712433;-1.392396;-1.224349;,
 1.764349;-1.240215;-1.236198;,
 1.781948;-1.080000;-1.240215;,
 1.781948;1.080000;-1.240215;,
 1.764349;1.240215;-1.236198;,
 1.712433;1.392396;-1.224349;,
 1.628805;1.528913;-1.205261;,
 1.517657;1.642919;-1.179892;,
 1.384564;1.728698;-1.149515;,
 1.236198;1.781948;-1.115651;,
 1.240215;-1.781948;-1.080000;,
 1.392396;-1.728698;-1.080000;,
 1.528913;-1.642919;-1.080000;,
 1.642919;-1.528913;-1.080000;,
 1.728698;-1.392396;-1.080000;,
 1.781948;-1.240215;-1.080000;,
 1.800000;-1.080000;-1.080000;,
 1.800000;1.080000;-1.080000;,
 1.781948;1.240215;-1.080000;,
 1.728698;1.392396;-1.080000;,
 1.642919;1.528913;-1.080000;,
 1.528913;1.642919;-1.080000;,
 1.392396;1.728698;-1.080000;,
 1.240215;1.781948;-1.080000;,
 1.240215;-1.781948;1.080000;,
 1.080000;-1.800000;1.080000;,
 1.392396;-1.728698;1.080000;,
 1.528913;-1.642919;1.080000;,
 1.642919;-1.528913;1.080000;,
 1.728698;-1.392396;1.080000;,
 1.781948;-1.240215;1.080000;,
 1.800000;-1.080000;1.080000;,
 1.800000;1.080000;1.080000;,
 1.781948;1.240215;1.080000;,
 1.728698;1.392396;1.080000;,
 1.642919;1.528913;1.080000;,
 1.528913;1.642919;1.080000;,
 1.392396;1.728698;1.080000;,
 1.240215;1.781948;1.080000;,
 1.080000;1.800000;1.080000;,
 1.236198;-1.781948;1.115651;,
 1.384564;-1.728698;1.149515;,
 1.517657;-1.642919;1.179892;,
 1.628805;-1.528913;1.205261;,
 1.712433;-1.392396;1.224349;,
 1.764349;-1.240215;1.236198;,
 1.781948;-1.080000;1.240215;,
 1.781948;1.080000;1.240215;,
 1.764349;1.240215;1.236198;,
 1.712433;1.392396;1.224349;,
 1.628805;1.528913;1.205261;,
 1.517657;1.642919;1.179892;,
 1.384564;1.728698;1.149515;,
 1.236198;1.781948;1.115651;,
 1.224349;-1.781948;1.149515;,
 1.361459;-1.728698;1.215544;,
 1.484456;-1.642919;1.274776;,
 1.587172;-1.528913;1.324241;,
 1.664456;-1.392396;1.361459;,
 1.712433;-1.240215;1.384564;,
 1.728698;-1.080000;1.392396;,
 1.728698;1.080000;1.392396;,
 1.712433;1.240215;1.384564;,
 1.664456;1.392396;1.361459;,
 1.587172;1.528913;1.324241;,
 1.484456;1.642919;1.274776;,
 1.361459;1.728698;1.215544;,
 1.224349;1.781948;1.149515;,
 1.205261;-1.781948;1.179892;,
 1.324241;-1.728698;1.274776;,
 1.430974;-1.642919;1.359892;,
 1.520108;-1.528913;1.430974;,
 1.587172;-1.392396;1.484456;,
 1.628805;-1.240215;1.517657;,
 1.642919;-1.080000;1.528913;,
 1.642919;1.080000;1.528913;,
 1.628805;1.240215;1.517657;,
 1.587172;1.392396;1.484456;,
 1.520108;1.528913;1.430974;,
 1.430974;1.642919;1.359892;,
 1.324241;1.728698;1.274776;,
 1.205261;1.781948;1.179892;,
 1.179892;-1.781948;1.205261;,
 1.274776;-1.728698;1.324241;,
 1.359892;-1.642919;1.430974;,
 1.430974;-1.528913;1.520108;,
 1.484456;-1.392396;1.587172;,
 1.517657;-1.240215;1.628805;,
 1.528913;-1.080000;1.642919;,
 1.528913;1.080000;1.642919;,
 1.517657;1.240215;1.628805;,
 1.484456;1.392396;1.587172;,
 1.430974;1.528913;1.520108;,
 1.359892;1.642919;1.430974;,
 1.274776;1.728698;1.324241;,
 1.179892;1.781948;1.205261;,
 1.149515;-1.781948;1.224349;,
 1.215544;-1.728698;1.361459;,
 1.274776;-1.642919;1.484456;,
 1.324241;-1.528913;1.587172;,
 1.361459;-1.392396;1.664456;,
 1.384564;-1.240215;1.712433;,
 1.392396;-1.080000;1.728698;,
 1.392396;1.080000;1.728698;,
 1.384564;1.240215;1.712433;,
 1.361459;1.392396;1.664456;,
 1.324241;1.528913;1.587172;,
 1.274776;1.642919;1.484456;,
 1.215544;1.728698;1.361459;,
 1.149515;1.781948;1.224349;,
 1.115651;-1.781948;1.236198;,
 1.149515;-1.728698;1.384564;,
 1.179892;-1.642919;1.517657;,
 1.205261;-1.528913;1.628805;,
 1.224349;-1.392396;1.712433;,
 1.236198;-1.240215;1.764349;,
 1.240215;-1.080000;1.781948;,
 1.240215;1.080000;1.781948;,
 1.236198;1.240215;1.764349;,
 1.224349;1.392396;1.712433;,
 1.205261;1.528913;1.628805;,
 1.179892;1.642919;1.517657;,
 1.149515;1.728698;1.384564;,
 1.115651;1.781948;1.236198;,
 1.080000;-1.781948;1.240215;,
 1.080000;-1.728698;1.392396;,
 1.080000;-1.642919;1.528913;,
 1.080000;-1.528913;1.642919;,
 1.080000;-1.392396;1.728698;,
 1.080000;-1.240215;1.781948;,
 1.080000;-1.080000;1.800000;,
 1.080000;1.080000;1.800000;,
 1.080000;1.240215;1.781948;,
 1.080000;1.392396;1.728698;,
 1.080000;1.528913;1.642919;,
 1.080000;1.642919;1.528913;,
 1.080000;1.728698;1.392396;,
 1.080000;1.781948;1.240215;,
 -1.080000;-1.781948;1.240215;,
 -1.080000;-1.800000;1.080000;,
 -1.080000;-1.728698;1.392396;,
 -1.080000;-1.642919;1.528913;,
 -1.080000;-1.528913;1.642919;,
 -1.080000;-1.392396;1.728698;,
 -1.080000;-1.240215;1.781948;,
 -1.080000;-1.080000;1.800000;,
 -1.080000;1.080000;1.800000;,
 -1.080000;1.240215;1.781948;,
 -1.080000;1.392396;1.728698;,
 -1.080000;1.528913;1.642919;,
 -1.080000;1.642919;1.528913;,
 -1.080000;1.728698;1.392396;,
 -1.080000;1.781948;1.240215;,
 -1.080000;1.800000;1.080000;,
 -1.115651;-1.781948;1.236198;,
 -1.149515;-1.728698;1.384564;,
 -1.179892;-1.642919;1.517657;,
 -1.205261;-1.528913;1.628805;,
 -1.224349;-1.392396;1.712433;,
 -1.236198;-1.240215;1.764349;,
 -1.240215;-1.080000;1.781948;,
 -1.240215;1.080000;1.781948;,
 -1.236198;1.240215;1.764349;,
 -1.224349;1.392396;1.712433;,
 -1.205261;1.528913;1.628805;,
 -1.179892;1.642919;1.517657;,
 -1.149515;1.728698;1.384564;,
 -1.115651;1.781948;1.236198;,
 -1.149515;-1.781948;1.224349;,
 -1.215544;-1.728698;1.361459;,
 -1.274776;-1.642919;1.484456;,
 -1.324241;-1.528913;1.587172;,
 -1.361459;-1.392396;1.664456;,
 -1.384564;-1.240215;1.712433;,
 -1.392396;-1.080000;1.728697;,
 -1.392396;1.080000;1.728697;,
 -1.384564;1.240215;1.712433;,
 -1.361459;1.392396;1.664456;,
 -1.324241;1.528913;1.587172;,
 -1.274776;1.642919;1.484456;,
 -1.215544;1.728698;1.361459;,
 -1.149515;1.781948;1.224349;,
 -1.179892;-1.781948;1.205261;,
 -1.274776;-1.728698;1.324241;,
 -1.359892;-1.642919;1.430974;,
 -1.430974;-1.528913;1.520108;,
 -1.484456;-1.392396;1.587172;,
 -1.517658;-1.240215;1.628805;,
 -1.528913;-1.080000;1.642919;,
 -1.528913;1.080000;1.642919;,
 -1.517658;1.240215;1.628805;,
 -1.484456;1.392396;1.587172;,
 -1.430974;1.528913;1.520108;,
 -1.359892;1.642919;1.430974;,
 -1.274776;1.728698;1.324241;,
 -1.179892;1.781948;1.205261;,
 -1.205261;-1.781948;1.179892;,
 -1.324241;-1.728698;1.274776;,
 -1.430974;-1.642919;1.359892;,
 -1.520107;-1.528913;1.430974;,
 -1.587172;-1.392396;1.484457;,
 -1.628805;-1.240215;1.517658;,
 -1.642918;-1.080000;1.528913;,
 -1.642918;1.080000;1.528913;,
 -1.628805;1.240215;1.517658;,
 -1.587172;1.392396;1.484457;,
 -1.520107;1.528913;1.430974;,
 -1.430974;1.642919;1.359892;,
 -1.324241;1.728698;1.274776;,
 -1.205261;1.781948;1.179892;,
 -1.224349;-1.781948;1.149515;,
 -1.361459;-1.728698;1.215544;,
 -1.484456;-1.642919;1.274776;,
 -1.587172;-1.528913;1.324241;,
 -1.664456;-1.392396;1.361459;,
 -1.712433;-1.240215;1.384564;,
 -1.728697;-1.080000;1.392396;,
 -1.728697;1.080000;1.392396;,
 -1.712433;1.240215;1.384564;,
 -1.664456;1.392396;1.361459;,
 -1.587172;1.528913;1.324241;,
 -1.484456;1.642919;1.274776;,
 -1.361459;1.728698;1.215544;,
 -1.224349;1.781948;1.149515;,
 -1.236198;-1.781948;1.115651;,
 -1.384564;-1.728698;1.149515;,
 -1.517657;-1.642919;1.179892;,
 -1.628805;-1.528913;1.205261;,
 -1.712433;-1.392396;1.224349;,
 -1.764349;-1.240215;1.236198;,
 -1.781948;-1.080000;1.240215;,
 -1.781948;1.080000;1.240215;,
 -1.764349;1.240215;1.236198;,
 -1.712433;1.392396;1.224349;,
 -1.628805;1.528913;1.205261;,
 -1.517657;1.642919;1.179892;,
 -1.384564;1.728698;1.149515;,
 -1.236198;1.781948;1.115651;,
 -1.240215;-1.781948;1.080000;,
 -1.392396;-1.728698;1.080000;,
 -1.528913;-1.642919;1.080000;,
 -1.642919;-1.528913;1.080000;,
 -1.728698;-1.392396;1.080000;,
 -1.781948;-1.240215;1.080000;,
 -1.800000;-1.080000;1.080000;,
 -1.800000;1.080000;1.080000;,
 -1.781948;1.240215;1.080000;,
 -1.728698;1.392396;1.080000;,
 -1.642919;1.528913;1.080000;,
 -1.528913;1.642919;1.080000;,
 -1.392396;1.728698;1.080000;,
 -1.240215;1.781948;1.080000;,
 -1.240215;-1.781948;-1.080000;,
 -1.392396;-1.728698;-1.080000;,
 -1.528913;-1.642919;-1.080000;,
 -1.642919;-1.528913;-1.080000;,
 -1.728698;-1.392396;-1.080000;,
 -1.781948;-1.240215;-1.080000;,
 -1.800000;-1.080000;-1.080000;,
 -1.800000;1.080000;-1.080000;,
 -1.781948;1.240215;-1.080000;,
 -1.728698;1.392396;-1.080000;,
 -1.642919;1.528913;-1.080000;,
 -1.528913;1.642919;-1.080000;,
 -1.392396;1.728698;-1.080000;,
 -1.240215;1.781948;-1.080000;,
 -1.236198;-1.781948;-1.115651;,
 -1.384564;-1.728698;-1.149515;,
 -1.517657;-1.642919;-1.179892;,
 -1.628805;-1.528913;-1.205261;,
 -1.712433;-1.392396;-1.224349;,
 -1.764349;-1.240215;-1.236198;,
 -1.781948;-1.080000;-1.240215;,
 -1.781948;1.080000;-1.240215;,
 -1.764349;1.240215;-1.236198;,
 -1.712433;1.392396;-1.224349;,
 -1.628805;1.528913;-1.205261;,
 -1.517657;1.642919;-1.179892;,
 -1.384564;1.728698;-1.149515;,
 -1.236198;1.781948;-1.115651;,
 -1.224349;-1.781948;-1.149515;,
 -1.361459;-1.728698;-1.215544;,
 -1.484456;-1.642919;-1.274776;,
 -1.587172;-1.528913;-1.324241;,
 -1.664456;-1.392396;-1.361459;,
 -1.712433;-1.240215;-1.384564;,
 -1.728697;-1.080000;-1.392396;,
 -1.728697;1.080000;-1.392396;,
 -1.712433;1.240215;-1.384564;,
 -1.664456;1.392396;-1.361459;,
 -1.587172;1.528913;-1.324241;,
 -1.484456;1.642919;-1.274776;,
 -1.361459;1.728698;-1.215544;,
 -1.224349;1.781948;-1.149515;,
 -1.205261;-1.781948;-1.179892;,
 -1.324241;-1.728698;-1.274776;,
 -1.430974;-1.642919;-1.359892;,
 -1.520107;-1.528913;-1.430974;,
 -1.587172;-1.392396;-1.484457;,
 -1.628805;-1.240215;-1.517658;,
 -1.642918;-1.080000;-1.528913;,
 -1.642918;1.080000;-1.528913;,
 -1.628805;1.240215;-1.517658;,
 -1.587172;1.392396;-1.484457;,
 -1.520107;1.528913;-1.430974;,
 -1.430974;1.642919;-1.359892;,
 -1.324241;1.728698;-1.274776;,
 -1.205261;1.781948;-1.179892;,
 -1.179892;-1.781948;-1.205261;,
 -1.274776;-1.728698;-1.324241;,
 -1.359892;-1.642919;-1.430974;,
 -1.430974;-1.528913;-1.520108;,
 -1.484456;-1.392396;-1.587172;,
 -1.517658;-1.240215;-1.628805;,
 -1.528913;-1.080000;-1.642919;,
 -1.528913;1.080000;-1.642919;,
 -1.517658;1.240215;-1.628805;,
 -1.484456;1.392396;-1.587172;,
 -1.430974;1.528913;-1.520108;,
 -1.359892;1.642919;-1.430974;,
 -1.274776;1.728698;-1.324241;,
 -1.179892;1.781948;-1.205261;,
 -1.149515;-1.781948;-1.224349;,
 -1.215544;-1.728698;-1.361459;,
 -1.274776;-1.642919;-1.484456;,
 -1.324241;-1.528913;-1.587172;,
 -1.361459;-1.392396;-1.664456;,
 -1.384564;-1.240215;-1.712433;,
 -1.392396;-1.080000;-1.728698;,
 -1.392396;1.080000;-1.728698;,
 -1.384564;1.240215;-1.712433;,
 -1.361459;1.392396;-1.664456;,
 -1.324241;1.528913;-1.587172;,
 -1.274776;1.642919;-1.484456;,
 -1.215544;1.728698;-1.361459;,
 -1.149515;1.781948;-1.224349;,
 -1.115651;-1.781948;-1.236198;,
 -1.149515;-1.728698;-1.384564;,
 -1.179892;-1.642919;-1.517657;,
 -1.205261;-1.528913;-1.628805;,
 -1.224349;-1.392396;-1.712433;,
 -1.236198;-1.240215;-1.764349;,
 -1.240215;-1.080000;-1.781948;,
 -1.240215;1.080000;-1.781948;,
 -1.236198;1.240215;-1.764349;,
 -1.224349;1.392396;-1.712433;,
 -1.205261;1.528913;-1.628805;,
 -1.179892;1.642919;-1.517657;,
 -1.149515;1.728698;-1.384564;,
 -1.115651;1.781948;-1.236198;;
 908;
 3;2,1,0;,
 3;2,0,3;,
 3;1,5,4;,
 3;1,4,0;,
 3;5,7,6;,
 3;5,6,4;,
 3;7,9,8;,
 3;7,8,6;,
 3;9,11,10;,
 3;9,10,8;,
 3;11,13,12;,
 3;11,12,10;,
 3;13,15,14;,
 3;13,14,12;,
 3;15,17,16;,
 3;15,16,14;,
 3;17,19,18;,
 3;17,18,16;,
 3;19,21,20;,
 3;19,20,18;,
 3;21,23,22;,
 3;21,22,20;,
 3;23,25,24;,
 3;23,24,22;,
 3;25,27,26;,
 3;25,26,24;,
 3;27,29,28;,
 3;27,28,26;,
 3;29,31,30;,
 3;29,30,28;,
 3;3,0,32;,
 3;0,4,33;,
 3;0,33,32;,
 3;4,6,34;,
 3;4,34,33;,
 3;6,8,35;,
 3;6,35,34;,
 3;8,10,36;,
 3;8,36,35;,
 3;10,12,37;,
 3;10,37,36;,
 3;12,14,38;,
 3;12,38,37;,
 3;14,16,39;,
 3;14,39,38;,
 3;16,18,40;,
 3;16,40,39;,
 3;18,20,41;,
 3;18,41,40;,
 3;20,22,42;,
 3;20,42,41;,
 3;22,24,43;,
 3;22,43,42;,
 3;24,26,44;,
 3;24,44,43;,
 3;26,28,45;,
 3;26,45,44;,
 3;28,30,45;,
 3;3,32,46;,
 3;32,33,47;,
 3;32,47,46;,
 3;33,34,48;,
 3;33,48,47;,
 3;34,35,49;,
 3;34,49,48;,
 3;35,36,50;,
 3;35,50,49;,
 3;36,37,51;,
 3;36,51,50;,
 3;37,38,52;,
 3;37,52,51;,
 3;38,39,53;,
 3;38,53,52;,
 3;39,40,54;,
 3;39,54,53;,
 3;40,41,55;,
 3;40,55,54;,
 3;41,42,56;,
 3;41,56,55;,
 3;42,43,57;,
 3;42,57,56;,
 3;43,44,58;,
 3;43,58,57;,
 3;44,45,59;,
 3;44,59,58;,
 3;45,30,59;,
 3;3,46,60;,
 3;46,47,61;,
 3;46,61,60;,
 3;47,48,62;,
 3;47,62,61;,
 3;48,49,63;,
 3;48,63,62;,
 3;49,50,64;,
 3;49,64,63;,
 3;50,51,65;,
 3;50,65,64;,
 3;51,52,66;,
 3;51,66,65;,
 3;52,53,67;,
 3;52,67,66;,
 3;53,54,68;,
 3;53,68,67;,
 3;54,55,69;,
 3;54,69,68;,
 3;55,56,70;,
 3;55,70,69;,
 3;56,57,71;,
 3;56,71,70;,
 3;57,58,72;,
 3;57,72,71;,
 3;58,59,73;,
 3;58,73,72;,
 3;59,30,73;,
 3;3,60,74;,
 3;60,61,75;,
 3;60,75,74;,
 3;61,62,76;,
 3;61,76,75;,
 3;62,63,77;,
 3;62,77,76;,
 3;63,64,78;,
 3;63,78,77;,
 3;64,65,79;,
 3;64,79,78;,
 3;65,66,80;,
 3;65,80,79;,
 3;66,67,81;,
 3;66,81,80;,
 3;67,68,82;,
 3;67,82,81;,
 3;68,69,83;,
 3;68,83,82;,
 3;69,70,84;,
 3;69,84,83;,
 3;70,71,85;,
 3;70,85,84;,
 3;71,72,86;,
 3;71,86,85;,
 3;72,73,87;,
 3;72,87,86;,
 3;73,30,87;,
 3;3,74,88;,
 3;74,75,89;,
 3;74,89,88;,
 3;75,76,90;,
 3;75,90,89;,
 3;76,77,91;,
 3;76,91,90;,
 3;77,78,92;,
 3;77,92,91;,
 3;78,79,93;,
 3;78,93,92;,
 3;79,80,94;,
 3;79,94,93;,
 3;80,81,95;,
 3;80,95,94;,
 3;81,82,96;,
 3;81,96,95;,
 3;82,83,97;,
 3;82,97,96;,
 3;83,84,98;,
 3;83,98,97;,
 3;84,85,99;,
 3;84,99,98;,
 3;85,86,100;,
 3;85,100,99;,
 3;86,87,101;,
 3;86,101,100;,
 3;87,30,101;,
 3;3,88,102;,
 3;88,89,103;,
 3;88,103,102;,
 3;89,90,104;,
 3;89,104,103;,
 3;90,91,105;,
 3;90,105,104;,
 3;91,92,106;,
 3;91,106,105;,
 3;92,93,107;,
 3;92,107,106;,
 3;93,94,108;,
 3;93,108,107;,
 3;94,95,109;,
 3;94,109,108;,
 3;95,96,110;,
 3;95,110,109;,
 3;96,97,111;,
 3;96,111,110;,
 3;97,98,112;,
 3;97,112,111;,
 3;98,99,113;,
 3;98,113,112;,
 3;99,100,114;,
 3;99,114,113;,
 3;100,101,115;,
 3;100,115,114;,
 3;101,30,115;,
 3;3,102,116;,
 3;102,103,117;,
 3;102,117,116;,
 3;103,104,118;,
 3;103,118,117;,
 3;104,105,119;,
 3;104,119,118;,
 3;105,106,120;,
 3;105,120,119;,
 3;106,107,121;,
 3;106,121,120;,
 3;107,108,122;,
 3;107,122,121;,
 3;108,109,123;,
 3;108,123,122;,
 3;109,110,124;,
 3;109,124,123;,
 3;110,111,125;,
 3;110,125,124;,
 3;111,112,126;,
 3;111,126,125;,
 3;112,113,127;,
 3;112,127,126;,
 3;113,114,128;,
 3;113,128,127;,
 3;114,115,129;,
 3;114,129,128;,
 3;115,30,129;,
 3;3,116,130;,
 3;3,130,131;,
 3;116,117,132;,
 3;116,132,130;,
 3;117,118,133;,
 3;117,133,132;,
 3;118,119,134;,
 3;118,134,133;,
 3;119,120,135;,
 3;119,135,134;,
 3;120,121,136;,
 3;120,136,135;,
 3;121,122,137;,
 3;121,137,136;,
 3;122,123,138;,
 3;122,138,137;,
 3;123,124,139;,
 3;123,139,138;,
 3;124,125,140;,
 3;124,140,139;,
 3;125,126,141;,
 3;125,141,140;,
 3;126,127,142;,
 3;126,142,141;,
 3;127,128,143;,
 3;127,143,142;,
 3;128,129,144;,
 3;128,144,143;,
 3;129,30,145;,
 3;129,145,144;,
 3;131,130,146;,
 3;130,132,147;,
 3;130,147,146;,
 3;132,133,148;,
 3;132,148,147;,
 3;133,134,149;,
 3;133,149,148;,
 3;134,135,150;,
 3;134,150,149;,
 3;135,136,151;,
 3;135,151,150;,
 3;136,137,152;,
 3;136,152,151;,
 3;137,138,153;,
 3;137,153,152;,
 3;138,139,154;,
 3;138,154,153;,
 3;139,140,155;,
 3;139,155,154;,
 3;140,141,156;,
 3;140,156,155;,
 3;141,142,157;,
 3;141,157,156;,
 3;142,143,158;,
 3;142,158,157;,
 3;143,144,159;,
 3;143,159,158;,
 3;144,145,159;,
 3;131,146,160;,
 3;146,147,161;,
 3;146,161,160;,
 3;147,148,162;,
 3;147,162,161;,
 3;148,149,163;,
 3;148,163,162;,
 3;149,150,164;,
 3;149,164,163;,
 3;150,151,165;,
 3;150,165,164;,
 3;151,152,166;,
 3;151,166,165;,
 3;152,153,167;,
 3;152,167,166;,
 3;153,154,168;,
 3;153,168,167;,
 3;154,155,169;,
 3;154,169,168;,
 3;155,156,170;,
 3;155,170,169;,
 3;156,157,171;,
 3;156,171,170;,
 3;157,158,172;,
 3;157,172,171;,
 3;158,159,173;,
 3;158,173,172;,
 3;159,145,173;,
 3;131,160,174;,
 3;160,161,175;,
 3;160,175,174;,
 3;161,162,176;,
 3;161,176,175;,
 3;162,163,177;,
 3;162,177,176;,
 3;163,164,178;,
 3;163,178,177;,
 3;164,165,179;,
 3;164,179,178;,
 3;165,166,180;,
 3;165,180,179;,
 3;166,167,181;,
 3;166,181,180;,
 3;167,168,182;,
 3;167,182,181;,
 3;168,169,183;,
 3;168,183,182;,
 3;169,170,184;,
 3;169,184,183;,
 3;170,171,185;,
 3;170,185,184;,
 3;171,172,186;,
 3;171,186,185;,
 3;172,173,187;,
 3;172,187,186;,
 3;173,145,187;,
 3;131,174,188;,
 3;174,175,189;,
 3;174,189,188;,
 3;175,176,190;,
 3;175,190,189;,
 3;176,177,191;,
 3;176,191,190;,
 3;177,178,192;,
 3;177,192,191;,
 3;178,179,193;,
 3;178,193,192;,
 3;179,180,194;,
 3;179,194,193;,
 3;180,181,195;,
 3;180,195,194;,
 3;181,182,196;,
 3;181,196,195;,
 3;182,183,197;,
 3;182,197,196;,
 3;183,184,198;,
 3;183,198,197;,
 3;184,185,199;,
 3;184,199,198;,
 3;185,186,200;,
 3;185,200,199;,
 3;186,187,201;,
 3;186,201,200;,
 3;187,145,201;,
 3;131,188,202;,
 3;188,189,203;,
 3;188,203,202;,
 3;189,190,204;,
 3;189,204,203;,
 3;190,191,205;,
 3;190,205,204;,
 3;191,192,206;,
 3;191,206,205;,
 3;192,193,207;,
 3;192,207,206;,
 3;193,194,208;,
 3;193,208,207;,
 3;194,195,209;,
 3;194,209,208;,
 3;195,196,210;,
 3;195,210,209;,
 3;196,197,211;,
 3;196,211,210;,
 3;197,198,212;,
 3;197,212,211;,
 3;198,199,213;,
 3;198,213,212;,
 3;199,200,214;,
 3;199,214,213;,
 3;200,201,215;,
 3;200,215,214;,
 3;201,145,215;,
 3;131,202,216;,
 3;202,203,217;,
 3;202,217,216;,
 3;203,204,218;,
 3;203,218,217;,
 3;204,205,219;,
 3;204,219,218;,
 3;205,206,220;,
 3;205,220,219;,
 3;206,207,221;,
 3;206,221,220;,
 3;207,208,222;,
 3;207,222,221;,
 3;208,209,223;,
 3;208,223,222;,
 3;209,210,224;,
 3;209,224,223;,
 3;210,211,225;,
 3;210,225,224;,
 3;211,212,226;,
 3;211,226,225;,
 3;212,213,227;,
 3;212,227,226;,
 3;213,214,228;,
 3;213,228,227;,
 3;214,215,229;,
 3;214,229,228;,
 3;215,145,229;,
 3;131,216,230;,
 3;216,217,231;,
 3;216,231,230;,
 3;217,218,232;,
 3;217,232,231;,
 3;218,219,233;,
 3;218,233,232;,
 3;219,220,234;,
 3;219,234,233;,
 3;220,221,235;,
 3;220,235,234;,
 3;221,222,236;,
 3;221,236,235;,
 3;222,223,237;,
 3;222,237,236;,
 3;223,224,238;,
 3;223,238,237;,
 3;224,225,239;,
 3;224,239,238;,
 3;225,226,240;,
 3;225,240,239;,
 3;226,227,241;,
 3;226,241,240;,
 3;227,228,242;,
 3;227,242,241;,
 3;228,229,243;,
 3;228,243,242;,
 3;229,145,243;,
 3;131,230,244;,
 3;131,244,245;,
 3;230,231,246;,
 3;230,246,244;,
 3;231,232,247;,
 3;231,247,246;,
 3;232,233,248;,
 3;232,248,247;,
 3;233,234,249;,
 3;233,249,248;,
 3;234,235,250;,
 3;234,250,249;,
 3;235,236,251;,
 3;235,251,250;,
 3;236,237,252;,
 3;236,252,251;,
 3;237,238,253;,
 3;237,253,252;,
 3;238,239,254;,
 3;238,254,253;,
 3;239,240,255;,
 3;239,255,254;,
 3;240,241,256;,
 3;240,256,255;,
 3;241,242,257;,
 3;241,257,256;,
 3;242,243,258;,
 3;242,258,257;,
 3;243,145,259;,
 3;243,259,258;,
 3;245,244,260;,
 3;244,246,261;,
 3;244,261,260;,
 3;246,247,262;,
 3;246,262,261;,
 3;247,248,263;,
 3;247,263,262;,
 3;248,249,264;,
 3;248,264,263;,
 3;249,250,265;,
 3;249,265,264;,
 3;250,251,266;,
 3;250,266,265;,
 3;251,252,267;,
 3;251,267,266;,
 3;252,253,268;,
 3;252,268,267;,
 3;253,254,269;,
 3;253,269,268;,
 3;254,255,270;,
 3;254,270,269;,
 3;255,256,271;,
 3;255,271,270;,
 3;256,257,272;,
 3;256,272,271;,
 3;257,258,273;,
 3;257,273,272;,
 3;258,259,273;,
 3;245,260,274;,
 3;260,261,275;,
 3;260,275,274;,
 3;261,262,276;,
 3;261,276,275;,
 3;262,263,277;,
 3;262,277,276;,
 3;263,264,278;,
 3;263,278,277;,
 3;264,265,279;,
 3;264,279,278;,
 3;265,266,280;,
 3;265,280,279;,
 3;266,267,281;,
 3;266,281,280;,
 3;267,268,282;,
 3;267,282,281;,
 3;268,269,283;,
 3;268,283,282;,
 3;269,270,284;,
 3;269,284,283;,
 3;270,271,285;,
 3;270,285,284;,
 3;271,272,286;,
 3;271,286,285;,
 3;272,273,287;,
 3;272,287,286;,
 3;273,259,287;,
 3;245,274,288;,
 3;274,275,289;,
 3;274,289,288;,
 3;275,276,290;,
 3;275,290,289;,
 3;276,277,291;,
 3;276,291,290;,
 3;277,278,292;,
 3;277,292,291;,
 3;278,279,293;,
 3;278,293,292;,
 3;279,280,294;,
 3;279,294,293;,
 3;280,281,295;,
 3;280,295,294;,
 3;281,282,296;,
 3;281,296,295;,
 3;282,283,297;,
 3;282,297,296;,
 3;283,284,298;,
 3;283,298,297;,
 3;284,285,299;,
 3;284,299,298;,
 3;285,286,300;,
 3;285,300,299;,
 3;286,287,301;,
 3;286,301,300;,
 3;287,259,301;,
 3;245,288,302;,
 3;288,289,303;,
 3;288,303,302;,
 3;289,290,304;,
 3;289,304,303;,
 3;290,291,305;,
 3;290,305,304;,
 3;291,292,306;,
 3;291,306,305;,
 3;292,293,307;,
 3;292,307,306;,
 3;293,294,308;,
 3;293,308,307;,
 3;294,295,309;,
 3;294,309,308;,
 3;295,296,310;,
 3;295,310,309;,
 3;296,297,311;,
 3;296,311,310;,
 3;297,298,312;,
 3;297,312,311;,
 3;298,299,313;,
 3;298,313,312;,
 3;299,300,314;,
 3;299,314,313;,
 3;300,301,315;,
 3;300,315,314;,
 3;301,259,315;,
 3;245,302,316;,
 3;302,303,317;,
 3;302,317,316;,
 3;303,304,318;,
 3;303,318,317;,
 3;304,305,319;,
 3;304,319,318;,
 3;305,306,320;,
 3;305,320,319;,
 3;306,307,321;,
 3;306,321,320;,
 3;307,308,322;,
 3;307,322,321;,
 3;308,309,323;,
 3;308,323,322;,
 3;309,310,324;,
 3;309,324,323;,
 3;310,311,325;,
 3;310,325,324;,
 3;311,312,326;,
 3;311,326,325;,
 3;312,313,327;,
 3;312,327,326;,
 3;313,314,328;,
 3;313,328,327;,
 3;314,315,329;,
 3;314,329,328;,
 3;315,259,329;,
 3;245,316,330;,
 3;316,317,331;,
 3;316,331,330;,
 3;317,318,332;,
 3;317,332,331;,
 3;318,319,333;,
 3;318,333,332;,
 3;319,320,334;,
 3;319,334,333;,
 3;320,321,335;,
 3;320,335,334;,
 3;321,322,336;,
 3;321,336,335;,
 3;322,323,337;,
 3;322,337,336;,
 3;323,324,338;,
 3;323,338,337;,
 3;324,325,339;,
 3;324,339,338;,
 3;325,326,340;,
 3;325,340,339;,
 3;326,327,341;,
 3;326,341,340;,
 3;327,328,342;,
 3;327,342,341;,
 3;328,329,343;,
 3;328,343,342;,
 3;329,259,343;,
 3;245,330,344;,
 3;330,331,345;,
 3;330,345,344;,
 3;331,332,346;,
 3;331,346,345;,
 3;332,333,347;,
 3;332,347,346;,
 3;333,334,348;,
 3;333,348,347;,
 3;334,335,349;,
 3;334,349,348;,
 3;335,336,350;,
 3;335,350,349;,
 3;336,337,351;,
 3;336,351,350;,
 3;337,338,352;,
 3;337,352,351;,
 3;338,339,353;,
 3;338,353,352;,
 3;339,340,354;,
 3;339,354,353;,
 3;340,341,355;,
 3;340,355,354;,
 3;341,342,356;,
 3;341,356,355;,
 3;342,343,357;,
 3;342,357,356;,
 3;343,259,357;,
 3;245,344,358;,
 3;245,358,2;,
 3;344,345,359;,
 3;344,359,358;,
 3;345,346,360;,
 3;345,360,359;,
 3;346,347,361;,
 3;346,361,360;,
 3;347,348,362;,
 3;347,362,361;,
 3;348,349,363;,
 3;348,363,362;,
 3;349,350,364;,
 3;349,364,363;,
 3;350,351,365;,
 3;350,365,364;,
 3;351,352,366;,
 3;351,366,365;,
 3;352,353,367;,
 3;352,367,366;,
 3;353,354,368;,
 3;353,368,367;,
 3;354,355,369;,
 3;354,369,368;,
 3;355,356,370;,
 3;355,370,369;,
 3;356,357,371;,
 3;356,371,370;,
 3;357,259,31;,
 3;357,31,371;,
 3;2,358,372;,
 3;358,359,373;,
 3;358,373,372;,
 3;359,360,374;,
 3;359,374,373;,
 3;360,361,375;,
 3;360,375,374;,
 3;361,362,376;,
 3;361,376,375;,
 3;362,363,377;,
 3;362,377,376;,
 3;363,364,378;,
 3;363,378,377;,
 3;364,365,379;,
 3;364,379,378;,
 3;365,366,380;,
 3;365,380,379;,
 3;366,367,381;,
 3;366,381,380;,
 3;367,368,382;,
 3;367,382,381;,
 3;368,369,383;,
 3;368,383,382;,
 3;369,370,384;,
 3;369,384,383;,
 3;370,371,385;,
 3;370,385,384;,
 3;371,31,385;,
 3;2,372,386;,
 3;372,373,387;,
 3;372,387,386;,
 3;373,374,388;,
 3;373,388,387;,
 3;374,375,389;,
 3;374,389,388;,
 3;375,376,390;,
 3;375,390,389;,
 3;376,377,391;,
 3;376,391,390;,
 3;377,378,392;,
 3;377,392,391;,
 3;378,379,393;,
 3;378,393,392;,
 3;379,380,394;,
 3;379,394,393;,
 3;380,381,395;,
 3;380,395,394;,
 3;381,382,396;,
 3;381,396,395;,
 3;382,383,397;,
 3;382,397,396;,
 3;383,384,398;,
 3;383,398,397;,
 3;384,385,399;,
 3;384,399,398;,
 3;385,31,399;,
 3;2,386,400;,
 3;386,387,401;,
 3;386,401,400;,
 3;387,388,402;,
 3;387,402,401;,
 3;388,389,403;,
 3;388,403,402;,
 3;389,390,404;,
 3;389,404,403;,
 3;390,391,405;,
 3;390,405,404;,
 3;391,392,406;,
 3;391,406,405;,
 3;392,393,407;,
 3;392,407,406;,
 3;393,394,408;,
 3;393,408,407;,
 3;394,395,409;,
 3;394,409,408;,
 3;395,396,410;,
 3;395,410,409;,
 3;396,397,411;,
 3;396,411,410;,
 3;397,398,412;,
 3;397,412,411;,
 3;398,399,413;,
 3;398,413,412;,
 3;399,31,413;,
 3;2,400,414;,
 3;400,401,415;,
 3;400,415,414;,
 3;401,402,416;,
 3;401,416,415;,
 3;402,403,417;,
 3;402,417,416;,
 3;403,404,418;,
 3;403,418,417;,
 3;404,405,419;,
 3;404,419,418;,
 3;405,406,420;,
 3;405,420,419;,
 3;406,407,421;,
 3;406,421,420;,
 3;407,408,422;,
 3;407,422,421;,
 3;408,409,423;,
 3;408,423,422;,
 3;409,410,424;,
 3;409,424,423;,
 3;410,411,425;,
 3;410,425,424;,
 3;411,412,426;,
 3;411,426,425;,
 3;412,413,427;,
 3;412,427,426;,
 3;413,31,427;,
 3;2,414,428;,
 3;414,415,429;,
 3;414,429,428;,
 3;415,416,430;,
 3;415,430,429;,
 3;416,417,431;,
 3;416,431,430;,
 3;417,418,432;,
 3;417,432,431;,
 3;418,419,433;,
 3;418,433,432;,
 3;419,420,434;,
 3;419,434,433;,
 3;420,421,435;,
 3;420,435,434;,
 3;421,422,436;,
 3;421,436,435;,
 3;422,423,437;,
 3;422,437,436;,
 3;423,424,438;,
 3;423,438,437;,
 3;424,425,439;,
 3;424,439,438;,
 3;425,426,440;,
 3;425,440,439;,
 3;426,427,441;,
 3;426,441,440;,
 3;427,31,441;,
 3;2,428,442;,
 3;428,429,443;,
 3;428,443,442;,
 3;429,430,444;,
 3;429,444,443;,
 3;430,431,445;,
 3;430,445,444;,
 3;431,432,446;,
 3;431,446,445;,
 3;432,433,447;,
 3;432,447,446;,
 3;433,434,448;,
 3;433,448,447;,
 3;434,435,449;,
 3;434,449,448;,
 3;435,436,450;,
 3;435,450,449;,
 3;436,437,451;,
 3;436,451,450;,
 3;437,438,452;,
 3;437,452,451;,
 3;438,439,453;,
 3;438,453,452;,
 3;439,440,454;,
 3;439,454,453;,
 3;440,441,455;,
 3;440,455,454;,
 3;441,31,455;,
 3;2,442,1;,
 3;442,443,5;,
 3;442,5,1;,
 3;443,444,7;,
 3;443,7,5;,
 3;444,445,9;,
 3;444,9,7;,
 3;445,446,11;,
 3;445,11,9;,
 3;446,447,13;,
 3;446,13,11;,
 3;447,448,15;,
 3;447,15,13;,
 3;448,449,17;,
 3;448,17,15;,
 3;449,450,19;,
 3;449,19,17;,
 3;450,451,21;,
 3;450,21,19;,
 3;451,452,23;,
 3;451,23,21;,
 3;452,453,25;,
 3;452,25,23;,
 3;453,454,27;,
 3;453,27,25;,
 3;454,455,29;,
 3;454,29,27;,
 3;455,31,29;,
 3;31,259,145;,
 3;31,145,30;,
 3;2,3,131;,
 3;2,131,245;;

 MeshNormals {
  456;
  0.014592;-0.974830;-0.222473;,
  -0.010022;-0.969621;-0.244406;,
  -0.051367;-0.996832;-0.060717;,
  0.066228;-0.996230;-0.056029;,
  0.026319;-0.900680;-0.433684;,
  -0.022517;-0.900744;-0.433767;,
  0.036702;-0.781358;-0.623003;,
  -0.033412;-0.781390;-0.623148;,
  0.045224;-0.622938;-0.780963;,
  -0.042608;-0.622897;-0.781142;,
  0.051470;-0.433422;-0.899720;,
  -0.049655;-0.433290;-0.899886;,
  0.055143;-0.222307;-0.973416;,
  -0.054214;-0.222102;-0.973515;,
  0.056042;-0.056042;-0.996854;,
  -0.055925;-0.055925;-0.996867;,
  0.055925;0.055925;-0.996867;,
  -0.056042;0.056042;-0.996854;,
  0.054214;0.222102;-0.973515;,
  -0.055143;0.222307;-0.973416;,
  0.049655;0.433290;-0.899886;,
  -0.051470;0.433422;-0.899720;,
  0.042608;0.622897;-0.781142;,
  -0.045224;0.622938;-0.780963;,
  0.033412;0.781390;-0.623148;,
  -0.036702;0.781358;-0.623003;,
  0.022517;0.900744;-0.433767;,
  -0.026319;0.900680;-0.433684;,
  0.010022;0.969621;-0.244406;,
  -0.014592;0.974830;-0.222473;,
  0.056029;0.996230;-0.066228;,
  -0.060717;0.996832;-0.051367;,
  0.061680;-0.969648;-0.236596;,
  0.100243;-0.900989;-0.422101;,
  0.141935;-0.781875;-0.607063;,
  0.176515;-0.623548;-0.761597;,
  0.202250;-0.433939;-0.877948;,
  0.217847;-0.222554;-0.950270;,
  0.222285;-0.056073;-0.973368;,
  0.222057;0.056073;-0.973420;,
  0.216033;0.222554;-0.950684;,
  0.198706;0.433939;-0.878757;,
  0.171410;0.623548;-0.762763;,
  0.135515;0.781875;-0.608528;,
  0.092827;0.900989;-0.423794;,
  0.047083;0.969648;-0.239928;,
  0.112781;-0.969648;-0.216939;,
  0.191656;-0.900989;-0.389212;,
  0.273461;-0.781875;-0.560259;,
  0.341561;-0.623548;-0.703224;,
  0.392541;-0.433939;-0.810931;,
  0.423840;-0.222554;-0.877969;,
  0.433306;-0.056073;-0.899501;,
  0.433096;0.056073;-0.899602;,
  0.422163;0.222554;-0.878776;,
  0.389266;0.433939;-0.812508;,
  0.336843;0.623548;-0.705496;,
  0.267528;0.781875;-0.563116;,
  0.184803;0.900989;-0.392513;,
  0.099292;0.969648;-0.223435;,
  0.158227;-0.969648;-0.186404;,
  0.273459;-0.900989;-0.336806;,
  0.391274;-0.781875;-0.485361;,
  0.489480;-0.623548;-0.609588;,
  0.563148;-0.433939;-0.703251;,
  0.608580;-0.222554;-0.761643;,
  0.622600;-0.056073;-0.780529;,
  0.622418;0.056073;-0.780674;,
  0.607125;0.222554;-0.762803;,
  0.560306;0.433939;-0.705517;,
  0.485385;0.623548;-0.612853;,
  0.386126;0.781875;-0.489467;,
  0.267511;0.900989;-0.341549;,
  0.146522;0.969648;-0.195739;,
  0.195739;-0.969648;-0.146522;,
  0.341549;-0.900989;-0.267511;,
  0.489467;-0.781875;-0.386126;,
  0.612853;-0.623548;-0.485385;,
  0.705517;-0.433939;-0.560306;,
  0.762803;-0.222554;-0.607125;,
  0.780674;-0.056073;-0.622418;,
  0.780529;0.056073;-0.622600;,
  0.761643;0.222554;-0.608580;,
  0.703250;0.433939;-0.563148;,
  0.609588;0.623548;-0.489480;,
  0.485361;0.781875;-0.391274;,
  0.336806;0.900989;-0.273459;,
  0.186404;0.969648;-0.158227;,
  0.223435;-0.969648;-0.099292;,
  0.392513;-0.900989;-0.184803;,
  0.563116;-0.781875;-0.267528;,
  0.705496;-0.623548;-0.336843;,
  0.812508;-0.433939;-0.389266;,
  0.878776;-0.222554;-0.422163;,
  0.899602;-0.056073;-0.433096;,
  0.899501;0.056073;-0.433306;,
  0.877969;0.222554;-0.423840;,
  0.810931;0.433939;-0.392541;,
  0.703224;0.623548;-0.341561;,
  0.560259;0.781875;-0.273461;,
  0.389212;0.900989;-0.191656;,
  0.216939;0.969648;-0.112781;,
  0.239928;-0.969648;-0.047083;,
  0.423794;-0.900989;-0.092827;,
  0.608528;-0.781875;-0.135515;,
  0.762763;-0.623548;-0.171410;,
  0.878757;-0.433939;-0.198706;,
  0.950684;-0.222554;-0.216033;,
  0.973420;-0.056073;-0.222057;,
  0.973368;0.056073;-0.222285;,
  0.950270;0.222554;-0.217847;,
  0.877948;0.433939;-0.202250;,
  0.761597;0.623548;-0.176515;,
  0.607063;0.781875;-0.141935;,
  0.422101;0.900989;-0.100243;,
  0.236596;0.969648;-0.061680;,
  0.244406;-0.969621;-0.010022;,
  0.433767;-0.900744;-0.022517;,
  0.623148;-0.781390;-0.033412;,
  0.781142;-0.622897;-0.042608;,
  0.899886;-0.433290;-0.049655;,
  0.973515;-0.222102;-0.054214;,
  0.996867;-0.055925;-0.055925;,
  0.996854;0.056042;-0.056042;,
  0.973416;0.222307;-0.055143;,
  0.899720;0.433422;-0.051470;,
  0.780963;0.622938;-0.045224;,
  0.623003;0.781358;-0.036702;,
  0.433684;0.900680;-0.026319;,
  0.222473;0.974830;-0.014592;,
  0.222473;-0.974830;0.014592;,
  0.051367;-0.996832;0.060717;,
  0.433684;-0.900680;0.026319;,
  0.623003;-0.781358;0.036702;,
  0.780963;-0.622938;0.045224;,
  0.899720;-0.433422;0.051470;,
  0.973416;-0.222307;0.055143;,
  0.996854;-0.056042;0.056042;,
  0.996867;0.055925;0.055925;,
  0.973515;0.222102;0.054214;,
  0.899886;0.433290;0.049655;,
  0.781142;0.622897;0.042608;,
  0.623148;0.781390;0.033412;,
  0.433767;0.900744;0.022517;,
  0.244406;0.969621;0.010022;,
  0.060717;0.996832;0.051367;,
  0.236596;-0.969648;0.061680;,
  0.422101;-0.900989;0.100244;,
  0.607063;-0.781875;0.141935;,
  0.761597;-0.623548;0.176515;,
  0.877948;-0.433939;0.202250;,
  0.950270;-0.222554;0.217847;,
  0.973368;-0.056073;0.222285;,
  0.973420;0.056073;0.222057;,
  0.950684;0.222554;0.216033;,
  0.878757;0.433939;0.198706;,
  0.762762;0.623548;0.171410;,
  0.608528;0.781875;0.135516;,
  0.423794;0.900989;0.092827;,
  0.239928;0.969648;0.047084;,
  0.216939;-0.969648;0.112781;,
  0.389212;-0.900989;0.191656;,
  0.560259;-0.781875;0.273461;,
  0.703224;-0.623548;0.341561;,
  0.810931;-0.433939;0.392541;,
  0.877969;-0.222554;0.423840;,
  0.899501;-0.056073;0.433306;,
  0.899602;0.056073;0.433096;,
  0.878776;0.222554;0.422163;,
  0.812508;0.433939;0.389266;,
  0.705496;0.623548;0.336843;,
  0.563116;0.781875;0.267528;,
  0.392513;0.900989;0.184802;,
  0.223435;0.969648;0.099292;,
  0.186404;-0.969648;0.158227;,
  0.336806;-0.900989;0.273459;,
  0.485361;-0.781875;0.391274;,
  0.609588;-0.623548;0.489479;,
  0.703251;-0.433939;0.563148;,
  0.761643;-0.222554;0.608580;,
  0.780529;-0.056073;0.622600;,
  0.780674;0.056073;0.622417;,
  0.762803;0.222554;0.607125;,
  0.705517;0.433939;0.560306;,
  0.612853;0.623548;0.485385;,
  0.489467;0.781875;0.386126;,
  0.341549;0.900989;0.267511;,
  0.195739;0.969648;0.146522;,
  0.146522;-0.969648;0.195739;,
  0.267511;-0.900989;0.341549;,
  0.386126;-0.781875;0.489467;,
  0.485385;-0.623548;0.612853;,
  0.560306;-0.433939;0.705517;,
  0.607125;-0.222554;0.762803;,
  0.622417;-0.056073;0.780675;,
  0.622600;0.056073;0.780529;,
  0.608580;0.222554;0.761643;,
  0.563148;0.433939;0.703251;,
  0.489479;0.623548;0.609588;,
  0.391274;0.781875;0.485362;,
  0.273459;0.900989;0.336806;,
  0.158227;0.969648;0.186404;,
  0.099292;-0.969648;0.223435;,
  0.184802;-0.900989;0.392513;,
  0.267528;-0.781875;0.563116;,
  0.336843;-0.623548;0.705496;,
  0.389266;-0.433939;0.812508;,
  0.422163;-0.222554;0.878776;,
  0.433096;-0.056073;0.899602;,
  0.433306;0.056073;0.899501;,
  0.423840;0.222554;0.877969;,
  0.392541;0.433939;0.810931;,
  0.341561;0.623548;0.703224;,
  0.273461;0.781875;0.560259;,
  0.191656;0.900989;0.389212;,
  0.112781;0.969648;0.216939;,
  0.047084;-0.969648;0.239928;,
  0.092827;-0.900989;0.423794;,
  0.135516;-0.781875;0.608528;,
  0.171410;-0.623548;0.762763;,
  0.198706;-0.433939;0.878757;,
  0.216033;-0.222554;0.950684;,
  0.222057;-0.056073;0.973420;,
  0.222285;0.056073;0.973368;,
  0.217847;0.222554;0.950270;,
  0.202250;0.433939;0.877948;,
  0.176515;0.623548;0.761597;,
  0.141935;0.781875;0.607063;,
  0.100243;0.900989;0.422101;,
  0.061680;0.969648;0.236596;,
  0.010022;-0.969621;0.244406;,
  0.022517;-0.900744;0.433767;,
  0.033412;-0.781390;0.623148;,
  0.042608;-0.622897;0.781142;,
  0.049655;-0.433290;0.899886;,
  0.054214;-0.222102;0.973515;,
  0.055925;-0.055925;0.996867;,
  0.056042;0.056042;0.996854;,
  0.055143;0.222307;0.973416;,
  0.051470;0.433422;0.899720;,
  0.045224;0.622938;0.780963;,
  0.036702;0.781358;0.623003;,
  0.026319;0.900680;0.433684;,
  0.014592;0.974830;0.222473;,
  -0.014592;-0.974830;0.222473;,
  -0.066228;-0.996230;0.056029;,
  -0.026319;-0.900680;0.433684;,
  -0.036702;-0.781358;0.623003;,
  -0.045224;-0.622938;0.780963;,
  -0.051470;-0.433422;0.899720;,
  -0.055143;-0.222307;0.973416;,
  -0.056042;-0.056042;0.996854;,
  -0.055925;0.055925;0.996867;,
  -0.054214;0.222102;0.973515;,
  -0.049655;0.433290;0.899886;,
  -0.042608;0.622897;0.781142;,
  -0.033412;0.781390;0.623148;,
  -0.022517;0.900744;0.433767;,
  -0.010022;0.969621;0.244406;,
  -0.056029;0.996230;0.066228;,
  -0.061680;-0.969648;0.236596;,
  -0.100243;-0.900989;0.422101;,
  -0.141935;-0.781875;0.607063;,
  -0.176515;-0.623548;0.761597;,
  -0.202250;-0.433939;0.877948;,
  -0.217847;-0.222554;0.950270;,
  -0.222285;-0.056073;0.973368;,
  -0.222057;0.056073;0.973420;,
  -0.216033;0.222554;0.950684;,
  -0.198706;0.433939;0.878757;,
  -0.171410;0.623548;0.762762;,
  -0.135516;0.781875;0.608528;,
  -0.092827;0.900989;0.423794;,
  -0.047084;0.969648;0.239928;,
  -0.112781;-0.969648;0.216939;,
  -0.191657;-0.900989;0.389212;,
  -0.273461;-0.781875;0.560259;,
  -0.341561;-0.623548;0.703224;,
  -0.392541;-0.433939;0.810931;,
  -0.423840;-0.222554;0.877969;,
  -0.433306;-0.056073;0.899501;,
  -0.433096;0.056073;0.899602;,
  -0.422164;0.222554;0.878776;,
  -0.389266;0.433939;0.812508;,
  -0.336843;0.623548;0.705496;,
  -0.267528;0.781875;0.563116;,
  -0.184802;0.900989;0.392513;,
  -0.099292;0.969648;0.223435;,
  -0.158227;-0.969648;0.186404;,
  -0.273459;-0.900989;0.336806;,
  -0.391274;-0.781875;0.485361;,
  -0.489479;-0.623548;0.609588;,
  -0.563148;-0.433939;0.703250;,
  -0.608580;-0.222554;0.761643;,
  -0.622600;-0.056073;0.780529;,
  -0.622418;0.056073;0.780674;,
  -0.607125;0.222554;0.762803;,
  -0.560306;0.433938;0.705517;,
  -0.485385;0.623548;0.612853;,
  -0.386126;0.781875;0.489467;,
  -0.267511;0.900989;0.341549;,
  -0.146522;0.969648;0.195739;,
  -0.195739;-0.969648;0.146522;,
  -0.341549;-0.900989;0.267511;,
  -0.489467;-0.781875;0.386126;,
  -0.612853;-0.623548;0.485385;,
  -0.705517;-0.433939;0.560306;,
  -0.762803;-0.222554;0.607125;,
  -0.780674;-0.056073;0.622418;,
  -0.780529;0.056072;0.622600;,
  -0.761643;0.222554;0.608580;,
  -0.703250;0.433939;0.563148;,
  -0.609588;0.623548;0.489479;,
  -0.485361;0.781875;0.391274;,
  -0.336806;0.900989;0.273459;,
  -0.186404;0.969648;0.158227;,
  -0.223435;-0.969648;0.099292;,
  -0.392513;-0.900989;0.184803;,
  -0.563116;-0.781875;0.267528;,
  -0.705496;-0.623548;0.336843;,
  -0.812508;-0.433939;0.389266;,
  -0.878776;-0.222554;0.422164;,
  -0.899602;-0.056072;0.433096;,
  -0.899501;0.056072;0.433306;,
  -0.877969;0.222554;0.423840;,
  -0.810931;0.433939;0.392541;,
  -0.703224;0.623548;0.341561;,
  -0.560259;0.781875;0.273461;,
  -0.389212;0.900989;0.191656;,
  -0.216939;0.969648;0.112781;,
  -0.239928;-0.969648;0.047083;,
  -0.423794;-0.900989;0.092827;,
  -0.608528;-0.781875;0.135515;,
  -0.762763;-0.623548;0.171410;,
  -0.878757;-0.433939;0.198706;,
  -0.950684;-0.222554;0.216033;,
  -0.973420;-0.056072;0.222057;,
  -0.973368;0.056073;0.222285;,
  -0.950270;0.222554;0.217847;,
  -0.877948;0.433939;0.202250;,
  -0.761597;0.623548;0.176515;,
  -0.607063;0.781875;0.141935;,
  -0.422101;0.900989;0.100243;,
  -0.236596;0.969648;0.061680;,
  -0.244406;-0.969621;0.010022;,
  -0.433767;-0.900744;0.022517;,
  -0.623148;-0.781390;0.033412;,
  -0.781142;-0.622897;0.042608;,
  -0.899886;-0.433290;0.049655;,
  -0.973515;-0.222102;0.054214;,
  -0.996867;-0.055925;0.055925;,
  -0.996854;0.056042;0.056042;,
  -0.973416;0.222307;0.055143;,
  -0.899720;0.433422;0.051470;,
  -0.780963;0.622938;0.045224;,
  -0.623003;0.781358;0.036702;,
  -0.433684;0.900680;0.026319;,
  -0.222473;0.974830;0.014592;,
  -0.222473;-0.974830;-0.014592;,
  -0.433684;-0.900680;-0.026319;,
  -0.623003;-0.781358;-0.036702;,
  -0.780963;-0.622938;-0.045224;,
  -0.899720;-0.433422;-0.051470;,
  -0.973416;-0.222307;-0.055143;,
  -0.996854;-0.056042;-0.056042;,
  -0.996867;0.055925;-0.055925;,
  -0.973515;0.222102;-0.054214;,
  -0.899886;0.433290;-0.049655;,
  -0.781142;0.622897;-0.042608;,
  -0.623148;0.781390;-0.033412;,
  -0.433767;0.900744;-0.022517;,
  -0.244406;0.969621;-0.010022;,
  -0.236596;-0.969648;-0.061680;,
  -0.422101;-0.900989;-0.100243;,
  -0.607063;-0.781875;-0.141935;,
  -0.761597;-0.623548;-0.176515;,
  -0.877948;-0.433939;-0.202250;,
  -0.950270;-0.222554;-0.217847;,
  -0.973368;-0.056073;-0.222285;,
  -0.973420;0.056072;-0.222057;,
  -0.950684;0.222554;-0.216033;,
  -0.878757;0.433939;-0.198706;,
  -0.762763;0.623548;-0.171410;,
  -0.608528;0.781875;-0.135515;,
  -0.423794;0.900989;-0.092827;,
  -0.239928;0.969648;-0.047083;,
  -0.216939;-0.969648;-0.112781;,
  -0.389212;-0.900989;-0.191656;,
  -0.560259;-0.781875;-0.273461;,
  -0.703224;-0.623548;-0.341561;,
  -0.810931;-0.433939;-0.392541;,
  -0.877969;-0.222554;-0.423840;,
  -0.899500;-0.056072;-0.433307;,
  -0.899602;0.056072;-0.433096;,
  -0.878776;0.222554;-0.422164;,
  -0.812508;0.433939;-0.389266;,
  -0.705496;0.623548;-0.336843;,
  -0.563116;0.781875;-0.267528;,
  -0.392513;0.900989;-0.184803;,
  -0.223435;0.969648;-0.099292;,
  -0.186404;-0.969648;-0.158227;,
  -0.336806;-0.900989;-0.273459;,
  -0.485361;-0.781875;-0.391274;,
  -0.609588;-0.623548;-0.489480;,
  -0.703250;-0.433939;-0.563148;,
  -0.761643;-0.222554;-0.608580;,
  -0.780529;-0.056072;-0.622600;,
  -0.780674;0.056073;-0.622418;,
  -0.762803;0.222554;-0.607125;,
  -0.705517;0.433939;-0.560306;,
  -0.612853;0.623548;-0.485385;,
  -0.489467;0.781875;-0.386126;,
  -0.341549;0.900989;-0.267511;,
  -0.195739;0.969648;-0.146522;,
  -0.146522;-0.969648;-0.195739;,
  -0.267511;-0.900989;-0.341549;,
  -0.386126;-0.781875;-0.489467;,
  -0.485385;-0.623548;-0.612853;,
  -0.560306;-0.433939;-0.705517;,
  -0.607125;-0.222554;-0.762803;,
  -0.622418;-0.056073;-0.780674;,
  -0.622600;0.056073;-0.780529;,
  -0.608580;0.222554;-0.761643;,
  -0.563148;0.433939;-0.703251;,
  -0.489479;0.623548;-0.609588;,
  -0.391274;0.781875;-0.485361;,
  -0.273459;0.900989;-0.336806;,
  -0.158227;0.969648;-0.186404;,
  -0.099292;-0.969648;-0.223435;,
  -0.184803;-0.900989;-0.392513;,
  -0.267528;-0.781875;-0.563116;,
  -0.336843;-0.623548;-0.705496;,
  -0.389266;-0.433939;-0.812508;,
  -0.422163;-0.222554;-0.878776;,
  -0.433096;-0.056073;-0.899602;,
  -0.433306;0.056073;-0.899501;,
  -0.423840;0.222554;-0.877969;,
  -0.392541;0.433939;-0.810931;,
  -0.341561;0.623548;-0.703224;,
  -0.273461;0.781875;-0.560259;,
  -0.191656;0.900989;-0.389212;,
  -0.112781;0.969648;-0.216939;,
  -0.047083;-0.969648;-0.239928;,
  -0.092827;-0.900989;-0.423794;,
  -0.135515;-0.781875;-0.608528;,
  -0.171410;-0.623548;-0.762763;,
  -0.198706;-0.433939;-0.878757;,
  -0.216033;-0.222554;-0.950684;,
  -0.222057;-0.056073;-0.973420;,
  -0.222285;0.056073;-0.973368;,
  -0.217847;0.222554;-0.950270;,
  -0.202250;0.433939;-0.877948;,
  -0.176515;0.623548;-0.761597;,
  -0.141935;0.781875;-0.607063;,
  -0.100243;0.900989;-0.422101;,
  -0.061680;0.969648;-0.236596;;
  908;
  3;2,1,0;,
  3;2,0,3;,
  3;1,5,4;,
  3;1,4,0;,
  3;5,7,6;,
  3;5,6,4;,
  3;7,9,8;,
  3;7,8,6;,
  3;9,11,10;,
  3;9,10,8;,
  3;11,13,12;,
  3;11,12,10;,
  3;13,15,14;,
  3;13,14,12;,
  3;15,17,16;,
  3;15,16,14;,
  3;17,19,18;,
  3;17,18,16;,
  3;19,21,20;,
  3;19,20,18;,
  3;21,23,22;,
  3;21,22,20;,
  3;23,25,24;,
  3;23,24,22;,
  3;25,27,26;,
  3;25,26,24;,
  3;27,29,28;,
  3;27,28,26;,
  3;29,31,30;,
  3;29,30,28;,
  3;3,0,32;,
  3;0,4,33;,
  3;0,33,32;,
  3;4,6,34;,
  3;4,34,33;,
  3;6,8,35;,
  3;6,35,34;,
  3;8,10,36;,
  3;8,36,35;,
  3;10,12,37;,
  3;10,37,36;,
  3;12,14,38;,
  3;12,38,37;,
  3;14,16,39;,
  3;14,39,38;,
  3;16,18,40;,
  3;16,40,39;,
  3;18,20,41;,
  3;18,41,40;,
  3;20,22,42;,
  3;20,42,41;,
  3;22,24,43;,
  3;22,43,42;,
  3;24,26,44;,
  3;24,44,43;,
  3;26,28,45;,
  3;26,45,44;,
  3;28,30,45;,
  3;3,32,46;,
  3;32,33,47;,
  3;32,47,46;,
  3;33,34,48;,
  3;33,48,47;,
  3;34,35,49;,
  3;34,49,48;,
  3;35,36,50;,
  3;35,50,49;,
  3;36,37,51;,
  3;36,51,50;,
  3;37,38,52;,
  3;37,52,51;,
  3;38,39,53;,
  3;38,53,52;,
  3;39,40,54;,
  3;39,54,53;,
  3;40,41,55;,
  3;40,55,54;,
  3;41,42,56;,
  3;41,56,55;,
  3;42,43,57;,
  3;42,57,56;,
  3;43,44,58;,
  3;43,58,57;,
  3;44,45,59;,
  3;44,59,58;,
  3;45,30,59;,
  3;3,46,60;,
  3;46,47,61;,
  3;46,61,60;,
  3;47,48,62;,
  3;47,62,61;,
  3;48,49,63;,
  3;48,63,62;,
  3;49,50,64;,
  3;49,64,63;,
  3;50,51,65;,
  3;50,65,64;,
  3;51,52,66;,
  3;51,66,65;,
  3;52,53,67;,
  3;52,67,66;,
  3;53,54,68;,
  3;53,68,67;,
  3;54,55,69;,
  3;54,69,68;,
  3;55,56,70;,
  3;55,70,69;,
  3;56,57,71;,
  3;56,71,70;,
  3;57,58,72;,
  3;57,72,71;,
  3;58,59,73;,
  3;58,73,72;,
  3;59,30,73;,
  3;3,60,74;,
  3;60,61,75;,
  3;60,75,74;,
  3;61,62,76;,
  3;61,76,75;,
  3;62,63,77;,
  3;62,77,76;,
  3;63,64,78;,
  3;63,78,77;,
  3;64,65,79;,
  3;64,79,78;,
  3;65,66,80;,
  3;65,80,79;,
  3;66,67,81;,
  3;66,81,80;,
  3;67,68,82;,
  3;67,82,81;,
  3;68,69,83;,
  3;68,83,82;,
  3;69,70,84;,
  3;69,84,83;,
  3;70,71,85;,
  3;70,85,84;,
  3;71,72,86;,
  3;71,86,85;,
  3;72,73,87;,
  3;72,87,86;,
  3;73,30,87;,
  3;3,74,88;,
  3;74,75,89;,
  3;74,89,88;,
  3;75,76,90;,
  3;75,90,89;,
  3;76,77,91;,
  3;76,91,90;,
  3;77,78,92;,
  3;77,92,91;,
  3;78,79,93;,
  3;78,93,92;,
  3;79,80,94;,
  3;79,94,93;,
  3;80,81,95;,
  3;80,95,94;,
  3;81,82,96;,
  3;81,96,95;,
  3;82,83,97;,
  3;82,97,96;,
  3;83,84,98;,
  3;83,98,97;,
  3;84,85,99;,
  3;84,99,98;,
  3;85,86,100;,
  3;85,100,99;,
  3;86,87,101;,
  3;86,101,100;,
  3;87,30,101;,
  3;3,88,102;,
  3;88,89,103;,
  3;88,103,102;,
  3;89,90,104;,
  3;89,104,103;,
  3;90,91,105;,
  3;90,105,104;,
  3;91,92,106;,
  3;91,106,105;,
  3;92,93,107;,
  3;92,107,106;,
  3;93,94,108;,
  3;93,108,107;,
  3;94,95,109;,
  3;94,109,108;,
  3;95,96,110;,
  3;95,110,109;,
  3;96,97,111;,
  3;96,111,110;,
  3;97,98,112;,
  3;97,112,111;,
  3;98,99,113;,
  3;98,113,112;,
  3;99,100,114;,
  3;99,114,113;,
  3;100,101,115;,
  3;100,115,114;,
  3;101,30,115;,
  3;3,102,116;,
  3;102,103,117;,
  3;102,117,116;,
  3;103,104,118;,
  3;103,118,117;,
  3;104,105,119;,
  3;104,119,118;,
  3;105,106,120;,
  3;105,120,119;,
  3;106,107,121;,
  3;106,121,120;,
  3;107,108,122;,
  3;107,122,121;,
  3;108,109,123;,
  3;108,123,122;,
  3;109,110,124;,
  3;109,124,123;,
  3;110,111,125;,
  3;110,125,124;,
  3;111,112,126;,
  3;111,126,125;,
  3;112,113,127;,
  3;112,127,126;,
  3;113,114,128;,
  3;113,128,127;,
  3;114,115,129;,
  3;114,129,128;,
  3;115,30,129;,
  3;3,116,130;,
  3;3,130,131;,
  3;116,117,132;,
  3;116,132,130;,
  3;117,118,133;,
  3;117,133,132;,
  3;118,119,134;,
  3;118,134,133;,
  3;119,120,135;,
  3;119,135,134;,
  3;120,121,136;,
  3;120,136,135;,
  3;121,122,137;,
  3;121,137,136;,
  3;122,123,138;,
  3;122,138,137;,
  3;123,124,139;,
  3;123,139,138;,
  3;124,125,140;,
  3;124,140,139;,
  3;125,126,141;,
  3;125,141,140;,
  3;126,127,142;,
  3;126,142,141;,
  3;127,128,143;,
  3;127,143,142;,
  3;128,129,144;,
  3;128,144,143;,
  3;129,30,145;,
  3;129,145,144;,
  3;131,130,146;,
  3;130,132,147;,
  3;130,147,146;,
  3;132,133,148;,
  3;132,148,147;,
  3;133,134,149;,
  3;133,149,148;,
  3;134,135,150;,
  3;134,150,149;,
  3;135,136,151;,
  3;135,151,150;,
  3;136,137,152;,
  3;136,152,151;,
  3;137,138,153;,
  3;137,153,152;,
  3;138,139,154;,
  3;138,154,153;,
  3;139,140,155;,
  3;139,155,154;,
  3;140,141,156;,
  3;140,156,155;,
  3;141,142,157;,
  3;141,157,156;,
  3;142,143,158;,
  3;142,158,157;,
  3;143,144,159;,
  3;143,159,158;,
  3;144,145,159;,
  3;131,146,160;,
  3;146,147,161;,
  3;146,161,160;,
  3;147,148,162;,
  3;147,162,161;,
  3;148,149,163;,
  3;148,163,162;,
  3;149,150,164;,
  3;149,164,163;,
  3;150,151,165;,
  3;150,165,164;,
  3;151,152,166;,
  3;151,166,165;,
  3;152,153,167;,
  3;152,167,166;,
  3;153,154,168;,
  3;153,168,167;,
  3;154,155,169;,
  3;154,169,168;,
  3;155,156,170;,
  3;155,170,169;,
  3;156,157,171;,
  3;156,171,170;,
  3;157,158,172;,
  3;157,172,171;,
  3;158,159,173;,
  3;158,173,172;,
  3;159,145,173;,
  3;131,160,174;,
  3;160,161,175;,
  3;160,175,174;,
  3;161,162,176;,
  3;161,176,175;,
  3;162,163,177;,
  3;162,177,176;,
  3;163,164,178;,
  3;163,178,177;,
  3;164,165,179;,
  3;164,179,178;,
  3;165,166,180;,
  3;165,180,179;,
  3;166,167,181;,
  3;166,181,180;,
  3;167,168,182;,
  3;167,182,181;,
  3;168,169,183;,
  3;168,183,182;,
  3;169,170,184;,
  3;169,184,183;,
  3;170,171,185;,
  3;170,185,184;,
  3;171,172,186;,
  3;171,186,185;,
  3;172,173,187;,
  3;172,187,186;,
  3;173,145,187;,
  3;131,174,188;,
  3;174,175,189;,
  3;174,189,188;,
  3;175,176,190;,
  3;175,190,189;,
  3;176,177,191;,
  3;176,191,190;,
  3;177,178,192;,
  3;177,192,191;,
  3;178,179,193;,
  3;178,193,192;,
  3;179,180,194;,
  3;179,194,193;,
  3;180,181,195;,
  3;180,195,194;,
  3;181,182,196;,
  3;181,196,195;,
  3;182,183,197;,
  3;182,197,196;,
  3;183,184,198;,
  3;183,198,197;,
  3;184,185,199;,
  3;184,199,198;,
  3;185,186,200;,
  3;185,200,199;,
  3;186,187,201;,
  3;186,201,200;,
  3;187,145,201;,
  3;131,188,202;,
  3;188,189,203;,
  3;188,203,202;,
  3;189,190,204;,
  3;189,204,203;,
  3;190,191,205;,
  3;190,205,204;,
  3;191,192,206;,
  3;191,206,205;,
  3;192,193,207;,
  3;192,207,206;,
  3;193,194,208;,
  3;193,208,207;,
  3;194,195,209;,
  3;194,209,208;,
  3;195,196,210;,
  3;195,210,209;,
  3;196,197,211;,
  3;196,211,210;,
  3;197,198,212;,
  3;197,212,211;,
  3;198,199,213;,
  3;198,213,212;,
  3;199,200,214;,
  3;199,214,213;,
  3;200,201,215;,
  3;200,215,214;,
  3;201,145,215;,
  3;131,202,216;,
  3;202,203,217;,
  3;202,217,216;,
  3;203,204,218;,
  3;203,218,217;,
  3;204,205,219;,
  3;204,219,218;,
  3;205,206,220;,
  3;205,220,219;,
  3;206,207,221;,
  3;206,221,220;,
  3;207,208,222;,
  3;207,222,221;,
  3;208,209,223;,
  3;208,223,222;,
  3;209,210,224;,
  3;209,224,223;,
  3;210,211,225;,
  3;210,225,224;,
  3;211,212,226;,
  3;211,226,225;,
  3;212,213,227;,
  3;212,227,226;,
  3;213,214,228;,
  3;213,228,227;,
  3;214,215,229;,
  3;214,229,228;,
  3;215,145,229;,
  3;131,216,230;,
  3;216,217,231;,
  3;216,231,230;,
  3;217,218,232;,
  3;217,232,231;,
  3;218,219,233;,
  3;218,233,232;,
  3;219,220,234;,
  3;219,234,233;,
  3;220,221,235;,
  3;220,235,234;,
  3;221,222,236;,
  3;221,236,235;,
  3;222,223,237;,
  3;222,237,236;,
  3;223,224,238;,
  3;223,238,237;,
  3;224,225,239;,
  3;224,239,238;,
  3;225,226,240;,
  3;225,240,239;,
  3;226,227,241;,
  3;226,241,240;,
  3;227,228,242;,
  3;227,242,241;,
  3;228,229,243;,
  3;228,243,242;,
  3;229,145,243;,
  3;131,230,244;,
  3;131,244,245;,
  3;230,231,246;,
  3;230,246,244;,
  3;231,232,247;,
  3;231,247,246;,
  3;232,233,248;,
  3;232,248,247;,
  3;233,234,249;,
  3;233,249,248;,
  3;234,235,250;,
  3;234,250,249;,
  3;235,236,251;,
  3;235,251,250;,
  3;236,237,252;,
  3;236,252,251;,
  3;237,238,253;,
  3;237,253,252;,
  3;238,239,254;,
  3;238,254,253;,
  3;239,240,255;,
  3;239,255,254;,
  3;240,241,256;,
  3;240,256,255;,
  3;241,242,257;,
  3;241,257,256;,
  3;242,243,258;,
  3;242,258,257;,
  3;243,145,259;,
  3;243,259,258;,
  3;245,244,260;,
  3;244,246,261;,
  3;244,261,260;,
  3;246,247,262;,
  3;246,262,261;,
  3;247,248,263;,
  3;247,263,262;,
  3;248,249,264;,
  3;248,264,263;,
  3;249,250,265;,
  3;249,265,264;,
  3;250,251,266;,
  3;250,266,265;,
  3;251,252,267;,
  3;251,267,266;,
  3;252,253,268;,
  3;252,268,267;,
  3;253,254,269;,
  3;253,269,268;,
  3;254,255,270;,
  3;254,270,269;,
  3;255,256,271;,
  3;255,271,270;,
  3;256,257,272;,
  3;256,272,271;,
  3;257,258,273;,
  3;257,273,272;,
  3;258,259,273;,
  3;245,260,274;,
  3;260,261,275;,
  3;260,275,274;,
  3;261,262,276;,
  3;261,276,275;,
  3;262,263,277;,
  3;262,277,276;,
  3;263,264,278;,
  3;263,278,277;,
  3;264,265,279;,
  3;264,279,278;,
  3;265,266,280;,
  3;265,280,279;,
  3;266,267,281;,
  3;266,281,280;,
  3;267,268,282;,
  3;267,282,281;,
  3;268,269,283;,
  3;268,283,282;,
  3;269,270,284;,
  3;269,284,283;,
  3;270,271,285;,
  3;270,285,284;,
  3;271,272,286;,
  3;271,286,285;,
  3;272,273,287;,
  3;272,287,286;,
  3;273,259,287;,
  3;245,274,288;,
  3;274,275,289;,
  3;274,289,288;,
  3;275,276,290;,
  3;275,290,289;,
  3;276,277,291;,
  3;276,291,290;,
  3;277,278,292;,
  3;277,292,291;,
  3;278,279,293;,
  3;278,293,292;,
  3;279,280,294;,
  3;279,294,293;,
  3;280,281,295;,
  3;280,295,294;,
  3;281,282,296;,
  3;281,296,295;,
  3;282,283,297;,
  3;282,297,296;,
  3;283,284,298;,
  3;283,298,297;,
  3;284,285,299;,
  3;284,299,298;,
  3;285,286,300;,
  3;285,300,299;,
  3;286,287,301;,
  3;286,301,300;,
  3;287,259,301;,
  3;245,288,302;,
  3;288,289,303;,
  3;288,303,302;,
  3;289,290,304;,
  3;289,304,303;,
  3;290,291,305;,
  3;290,305,304;,
  3;291,292,306;,
  3;291,306,305;,
  3;292,293,307;,
  3;292,307,306;,
  3;293,294,308;,
  3;293,308,307;,
  3;294,295,309;,
  3;294,309,308;,
  3;295,296,310;,
  3;295,310,309;,
  3;296,297,311;,
  3;296,311,310;,
  3;297,298,312;,
  3;297,312,311;,
  3;298,299,313;,
  3;298,313,312;,
  3;299,300,314;,
  3;299,314,313;,
  3;300,301,315;,
  3;300,315,314;,
  3;301,259,315;,
  3;245,302,316;,
  3;302,303,317;,
  3;302,317,316;,
  3;303,304,318;,
  3;303,318,317;,
  3;304,305,319;,
  3;304,319,318;,
  3;305,306,320;,
  3;305,320,319;,
  3;306,307,321;,
  3;306,321,320;,
  3;307,308,322;,
  3;307,322,321;,
  3;308,309,323;,
  3;308,323,322;,
  3;309,310,324;,
  3;309,324,323;,
  3;310,311,325;,
  3;310,325,324;,
  3;311,312,326;,
  3;311,326,325;,
  3;312,313,327;,
  3;312,327,326;,
  3;313,314,328;,
  3;313,328,327;,
  3;314,315,329;,
  3;314,329,328;,
  3;315,259,329;,
  3;245,316,330;,
  3;316,317,331;,
  3;316,331,330;,
  3;317,318,332;,
  3;317,332,331;,
  3;318,319,333;,
  3;318,333,332;,
  3;319,320,334;,
  3;319,334,333;,
  3;320,321,335;,
  3;320,335,334;,
  3;321,322,336;,
  3;321,336,335;,
  3;322,323,337;,
  3;322,337,336;,
  3;323,324,338;,
  3;323,338,337;,
  3;324,325,339;,
  3;324,339,338;,
  3;325,326,340;,
  3;325,340,339;,
  3;326,327,341;,
  3;326,341,340;,
  3;327,328,342;,
  3;327,342,341;,
  3;328,329,343;,
  3;328,343,342;,
  3;329,259,343;,
  3;245,330,344;,
  3;330,331,345;,
  3;330,345,344;,
  3;331,332,346;,
  3;331,346,345;,
  3;332,333,347;,
  3;332,347,346;,
  3;333,334,348;,
  3;333,348,347;,
  3;334,335,349;,
  3;334,349,348;,
  3;335,336,350;,
  3;335,350,349;,
  3;336,337,351;,
  3;336,351,350;,
  3;337,338,352;,
  3;337,352,351;,
  3;338,339,353;,
  3;338,353,352;,
  3;339,340,354;,
  3;339,354,353;,
  3;340,341,355;,
  3;340,355,354;,
  3;341,342,356;,
  3;341,356,355;,
  3;342,343,357;,
  3;342,357,356;,
  3;343,259,357;,
  3;245,344,358;,
  3;245,358,2;,
  3;344,345,359;,
  3;344,359,358;,
  3;345,346,360;,
  3;345,360,359;,
  3;346,347,361;,
  3;346,361,360;,
  3;347,348,362;,
  3;347,362,361;,
  3;348,349,363;,
  3;348,363,362;,
  3;349,350,364;,
  3;349,364,363;,
  3;350,351,365;,
  3;350,365,364;,
  3;351,352,366;,
  3;351,366,365;,
  3;352,353,367;,
  3;352,367,366;,
  3;353,354,368;,
  3;353,368,367;,
  3;354,355,369;,
  3;354,369,368;,
  3;355,356,370;,
  3;355,370,369;,
  3;356,357,371;,
  3;356,371,370;,
  3;357,259,31;,
  3;357,31,371;,
  3;2,358,372;,
  3;358,359,373;,
  3;358,373,372;,
  3;359,360,374;,
  3;359,374,373;,
  3;360,361,375;,
  3;360,375,374;,
  3;361,362,376;,
  3;361,376,375;,
  3;362,363,377;,
  3;362,377,376;,
  3;363,364,378;,
  3;363,378,377;,
  3;364,365,379;,
  3;364,379,378;,
  3;365,366,380;,
  3;365,380,379;,
  3;366,367,381;,
  3;366,381,380;,
  3;367,368,382;,
  3;367,382,381;,
  3;368,369,383;,
  3;368,383,382;,
  3;369,370,384;,
  3;369,384,383;,
  3;370,371,385;,
  3;370,385,384;,
  3;371,31,385;,
  3;2,372,386;,
  3;372,373,387;,
  3;372,387,386;,
  3;373,374,388;,
  3;373,388,387;,
  3;374,375,389;,
  3;374,389,388;,
  3;375,376,390;,
  3;375,390,389;,
  3;376,377,391;,
  3;376,391,390;,
  3;377,378,392;,
  3;377,392,391;,
  3;378,379,393;,
  3;378,393,392;,
  3;379,380,394;,
  3;379,394,393;,
  3;380,381,395;,
  3;380,395,394;,
  3;381,382,396;,
  3;381,396,395;,
  3;382,383,397;,
  3;382,397,396;,
  3;383,384,398;,
  3;383,398,397;,
  3;384,385,399;,
  3;384,399,398;,
  3;385,31,399;,
  3;2,386,400;,
  3;386,387,401;,
  3;386,401,400;,
  3;387,388,402;,
  3;387,402,401;,
  3;388,389,403;,
  3;388,403,402;,
  3;389,390,404;,
  3;389,404,403;,
  3;390,391,405;,
  3;390,405,404;,
  3;391,392,406;,
  3;391,406,405;,
  3;392,393,407;,
  3;392,407,406;,
  3;393,394,408;,
  3;393,408,407;,
  3;394,395,409;,
  3;394,409,408;,
  3;395,396,410;,
  3;395,410,409;,
  3;396,397,411;,
  3;396,411,410;,
  3;397,398,412;,
  3;397,412,411;,
  3;398,399,413;,
  3;398,413,412;,
  3;399,31,413;,
  3;2,400,414;,
  3;400,401,415;,
  3;400,415,414;,
  3;401,402,416;,
  3;401,416,415;,
  3;402,403,417;,
  3;402,417,416;,
  3;403,404,418;,
  3;403,418,417;,
  3;404,405,419;,
  3;404,419,418;,
  3;405,406,420;,
  3;405,420,419;,
  3;406,407,421;,
  3;406,421,420;,
  3;407,408,422;,
  3;407,422,421;,
  3;408,409,423;,
  3;408,423,422;,
  3;409,410,424;,
  3;409,424,423;,
  3;410,411,425;,
  3;410,425,424;,
  3;411,412,426;,
  3;411,426,425;,
  3;412,413,427;,
  3;412,427,426;,
  3;413,31,427;,
  3;2,414,428;,
  3;414,415,429;,
  3;414,429,428;,
  3;415,416,430;,
  3;415,430,429;,
  3;416,417,431;,
  3;416,431,430;,
  3;417,418,432;,
  3;417,432,431;,
  3;418,419,433;,
  3;418,433,432;,
  3;419,420,434;,
  3;419,434,433;,
  3;420,421,435;,
  3;420,435,434;,
  3;421,422,436;,
  3;421,436,435;,
  3;422,423,437;,
  3;422,437,436;,
  3;423,424,438;,
  3;423,438,437;,
  3;424,425,439;,
  3;424,439,438;,
  3;425,426,440;,
  3;425,440,439;,
  3;426,427,441;,
  3;426,441,440;,
  3;427,31,441;,
  3;2,428,442;,
  3;428,429,443;,
  3;428,443,442;,
  3;429,430,444;,
  3;429,444,443;,
  3;430,431,445;,
  3;430,445,444;,
  3;431,432,446;,
  3;431,446,445;,
  3;432,433,447;,
  3;432,447,446;,
  3;433,434,448;,
  3;433,448,447;,
  3;434,435,449;,
  3;434,449,448;,
  3;435,436,450;,
  3;435,450,449;,
  3;436,437,451;,
  3;436,451,450;,
  3;437,438,452;,
  3;437,452,451;,
  3;438,439,453;,
  3;438,453,452;,
  3;439,440,454;,
  3;439,454,453;,
  3;440,441,455;,
  3;440,455,454;,
  3;441,31,455;,
  3;2,442,1;,
  3;442,443,5;,
  3;442,5,1;,
  3;443,444,7;,
  3;443,7,5;,
  3;444,445,9;,
  3;444,9,7;,
  3;445,446,11;,
  3;445,11,9;,
  3;446,447,13;,
  3;446,13,11;,
  3;447,448,15;,
  3;447,15,13;,
  3;448,449,17;,
  3;448,17,15;,
  3;449,450,19;,
  3;449,19,17;,
  3;450,451,21;,
  3;450,21,19;,
  3;451,452,23;,
  3;451,23,21;,
  3;452,453,25;,
  3;452,25,23;,
  3;453,454,27;,
  3;453,27,25;,
  3;454,455,29;,
  3;454,29,27;,
  3;455,31,29;,
  3;31,259,145;,
  3;31,145,30;,
  3;2,3,131;,
  3;2,131,245;;
 }

 FVFData {
  65794;
  1368;
  1058684055,
  1060213348,
  0,
  1048071811,
  1060213348,
  0,
  1048659886,
  1060487823,
  0,
  1058852045,
  1060487823,
  0,
  1058524470,
  1059851682,
  0,
  1047433472,
  1059851682,
  0,
  1058381326,
  1059420960,
  0,
  1046860899,
  1059420960,
  0,
  1058261789,
  1058942793,
  0,
  1046382748,
  1058942793,
  0,
  1058171829,
  1058441137,
  0,
  1046022910,
  1058441137,
  0,
  1058115995,
  1057941159,
  0,
  1045799572,
  1057941159,
  0,
  1058097070,
  1057467924,
  0,
  1045723873,
  1057467924,
  0,
  1058097070,
  1043207291,
  0,
  1045723873,
  1043207291,
  0,
  1058115995,
  1041516282,
  0,
  1045799572,
  1041516282,
  0,
  1058171829,
  1040036531,
  0,
  1046022910,
  1040036531,
  0,
  1058261789,
  1037942064,
  0,
  1046382748,
  1037942064,
  0,
  1058381326,
  1036666995,
  0,
  1046860899,
  1036666995,
  0,
  1058524470,
  1036275079,
  0,
  1047433472,
  1036275079,
  0,
  1058684055,
  1036785912,
  0,
  1048071811,
  1036785912,
  0,
  1058852045,
  1038174126,
  0,
  1048659886,
  1038174126,
  0,
  1058787939,
  1060218968,
  0,
  1058727071,
  1059862637,
  0,
  1058672445,
  1059436697,
  0,
  1058626844,
  1058962523,
  0,
  1058592518,
  1058463870,
  0,
  1058571211,
  1057965755,
  0,
  1058563997,
  1057493157,
  0,
  1058563997,
  1043308223,
  0,
  1058571211,
  1041614663,
  0,
  1058592518,
  1040202894,
  0,
  1058626844,
  1038099904,
  0,
  1058672445,
  1036792891,
  0,
  1058727071,
  1036362589,
  0,
  1058787939,
  1036830875,
  0,
  1058895062,
  1060235528,
  0,
  1058935914,
  1059894933,
  0,
  1058972572,
  1059483120,
  0,
  1059003191,
  1059020723,
  0,
  1059026209,
  1058530946,
  0,
  1059040520,
  1058038350,
  0,
  1059045352,
  1057567615,
  0,
  1059045352,
  1043606052,
  0,
  1059040520,
  1041905043,
  0,
  1059026209,
  1040471195,
  0,
  1059003191,
  1038565639,
  0,
  1058972572,
  1037164272,
  0,
  1058935914,
  1036621093,
  0,
  1058895062,
  1036963482,
  0,
  1059000020,
  1060262220,
  0,
  1059140579,
  1059946976,
  0,
  1059266660,
  1059557896,
  0,
  1059371954,
  1059114491,
  0,
  1059451176,
  1058639008,
  0,
  1059500367,
  1058155270,
  0,
  1059517027,
  1057687538,
  0,
  1059517027,
  1044085746,
  0,
  1059500367,
  1042372725,
  0,
  1059451176,
  1040903444,
  0,
  1059371954,
  1039315782,
  0,
  1059266660,
  1037762346,
  0,
  1059140579,
  1037037302,
  0,
  1059000020,
  1037176888,
  0,
  1059097563,
  1060297687,
  0,
  1059330749,
  1060016132,
  0,
  1059539944,
  1059657267,
  0,
  1059714645,
  1059239112,
  0,
  1059846095,
  1058782604,
  0,
  1059927699,
  1058310661,
  0,
  1059955365,
  1057846939,
  0,
  1059955365,
  1044723347,
  0,
  1059927699,
  1042994287,
  0,
  1059846095,
  1041477828,
  0,
  1059714645,
  1040250005,
  0,
  1059539944,
  1038557452,
  0,
  1059330749,
  1037590547,
  0,
  1059097563,
  1037460625,
  0,
  1059182774,
  1060340150,
  0,
  1059496927,
  1060098944,
  0,
  1059778751,
  1059776268,
  0,
  1060014102,
  1059388329,
  0,
  1060191169,
  1058954570,
  0,
  1060301093,
  1058496737,
  0,
  1060338372,
  1058037796,
  0,
  1060338372,
  1045486778,
  0,
  1060301093,
  1043738592,
  0,
  1060191169,
  1042165694,
  0,
  1060014102,
  1040846938,
  0,
  1059778751,
  1039509458,
  0,
  1059496927,
  1038253046,
  0,
  1059182774,
  1037800464,
  0,
  1059251426,
  1060387496,
  0,
  1059630776,
  1060191253,
  0,
  1059971085,
  1059908926,
  0,
  1060255274,
  1059554675,
  0,
  1060469100,
  1059146267,
  0,
  1060601841,
  1058704170,
  0,
  1060646838,
  1058250565,
  0,
  1060646838,
  1046337852,
  0,
  1060601841,
  1044568326,
  0,
  1060469100,
  1042932480,
  0,
  1060255274,
  1041512322,
  0,
  1059971085,
  1040379055,
  0,
  1059630776,
  1038991646,
  0,
  1059251426,
  1038179226,
  0,
  1059300030,
  1060437341,
  0,
  1059725567,
  1060288443,
  0,
  1060107299,
  1060048596,
  0,
  1060426083,
  1059729812,
  0,
  1060665930,
  1059348080,
  0,
  1060814828,
  1058922543,
  0,
  1060865311,
  1058474557,
  0,
  1060865311,
  1047233823,
  0,
  1060814828,
  1045441815,
  0,
  1060665930,
  1043739733,
  0,
  1060426083,
  1042212805,
  0,
  1060107299,
  1040937669,
  0,
  1059725567,
  1039769170,
  0,
  1059300030,
  1038577987,
  0,
  1061564971,
  1063457240,
  0,
  1061116969,
  1063507722,
  0,
  1061990491,
  1063308342,
  0,
  1062372223,
  1063068495,
  0,
  1062691007,
  1062749711,
  0,
  1062930854,
  1062367979,
  0,
  1063079752,
  1061942458,
  0,
  1063130235,
  1061494456,
  0,
  1063130235,
  1053944709,
  0,
  1063079752,
  1053048705,
  0,
  1062930854,
  1052197664,
  0,
  1062691007,
  1051434200,
  0,
  1062372223,
  1050796632,
  0,
  1061990491,
  1050316938,
  0,
  1061564971,
  1050019143,
  0,
  1061116969,
  1049918177,
  0,
  1061591110,
  1063507085,
  0,
  1062041477,
  1063405532,
  0,
  1062445490,
  1063208148,
  0,
  1062782879,
  1062924831,
  0,
  1063036735,
  1062569792,
  0,
  1063194341,
  1062160831,
  0,
  1063247759,
  1061718449,
  0,
  1063247759,
  1054392694,
  0,
  1063194341,
  1053485483,
  0,
  1063036735,
  1052601290,
  0,
  1062782879,
  1051784475,
  0,
  1062445490,
  1051075973,
  0,
  1062041477,
  1050511319,
  0,
  1061591110,
  1050118833,
  0,
  1061593492,
  1063554430,
  0,
  1062046108,
  1063497857,
  0,
  1062452150,
  1063340806,
  0,
  1062791234,
  1063091178,
  0,
  1063046366,
  1062761488,
  0,
  1063204742,
  1062368264,
  0,
  1063258430,
  1061931218,
  0,
  1063258430,
  1054818232,
  0,
  1063204742,
  1053900350,
  0,
  1063046366,
  1052984683,
  0,
  1062791234,
  1052117167,
  0,
  1062452150,
  1051341288,
  0,
  1062046108,
  1050695935,
  0,
  1061593492,
  1050213523,
  0,
  1061571967,
  1063596910,
  0,
  1062004148,
  1063580670,
  0,
  1062391853,
  1063459807,
  0,
  1062715620,
  1063240411,
  0,
  1062959225,
  1062933455,
  0,
  1063110455,
  1062554340,
  0,
  1063161726,
  1062122075,
  0,
  1063161726,
  1055199947,
  0,
  1063110455,
  1054272502,
  0,
  1062959225,
  1053328616,
  0,
  1062715620,
  1052415600,
  0,
  1062391853,
  1051579289,
  0,
  1062004148,
  1050861560,
  0,
  1061571967,
  1050298450,
  0,
  1061527642,
  1063632377,
  0,
  1061917712,
  1063649825,
  0,
  1062267634,
  1063559195,
  0,
  1062559843,
  1063365015,
  0,
  1062779725,
  1063077051,
  0,
  1062916208,
  1062709731,
  0,
  1062962479,
  1062281476,
  0,
  1062962479,
  1055518748,
  0,
  1062916208,
  1054583284,
  0,
  1062779725,
  1053615809,
  0,
  1062559843,
  1052664842,
  0,
  1062267634,
  1051778032,
  0,
  1061917712,
  1050999872,
  0,
  1061527642,
  1050369384,
  0,
  1061462714,
  1063659053,
  0,
  1061791111,
  1063701851,
  0,
  1062085702,
  1063633954,
  0,
  1062331723,
  1063458783,
  0,
  1062516826,
  1063185113,
  0,
  1062631750,
  1062826651,
  0,
  1062670707,
  1062401399,
  0,
  1062670707,
  1055758595,
  0,
  1062631750,
  1054817124,
  0,
  1062516826,
  1053831933,
  0,
  1062331723,
  1052852378,
  0,
  1062085702,
  1051927584,
  0,
  1061791111,
  1051103957,
  0,
  1061462714,
  1050422769,
  0,
  1061380438,
  1063675629,
  0,
  1061630704,
  1063734164,
  0,
  1061855200,
  1063680377,
  0,
  1062042685,
  1063517000,
  0,
  1062183748,
  1063252188,
  0,
  1062271325,
  1062899246,
  0,
  1062301004,
  1062475856,
  0,
  1062301004,
  1055907509,
  0,
  1062271325,
  1054962314,
  0,
  1062183748,
  1053966083,
  0,
  1062042685,
  1052968778,
  0,
  1061855200,
  1052020430,
  0,
  1061630704,
  1051168550,
  0,
  1061380438,
  1050455887,
  0,
  1061284959,
  1063681249,
  0,
  1061444544,
  1063745103,
  0,
  1061587687,
  1063696114,
  0,
  1061707225,
  1063536730,
  0,
  1061797184,
  1063274922,
  0,
  1061853019,
  1062923842,
  0,
  1061871944,
  1062501089,
  0,
  1061871944,
  1055957975,
  0,
  1061853019,
  1055011505,
  0,
  1061797184,
  1054011550,
  0,
  1061707225,
  1053008238,
  0,
  1061587687,
  1052051904,
  0,
  1061444544,
  1051190461,
  0,
  1061284959,
  1050467128,
  0,
  1053525715,
  1063681249,
  0,
  1053189734,
  1063507722,
  0,
  1053844885,
  1063745103,
  0,
  1054131171,
  1063696114,
  0,
  1054370246,
  1063536730,
  0,
  1054550165,
  1063274922,
  0,
  1054661834,
  1062923842,
  0,
  1054699684,
  1062501089,
  0,
  1054699684,
  1055957975,
  0,
  1054661834,
  1055011505,
  0,
  1054550165,
  1054011550,
  0,
  1054370246,
  1053008238,
  0,
  1054131171,
  1052051904,
  0,
  1053844885,
  1051190461,
  0,
  1053525715,
  1050467128,
  0,
  1053189734,
  1049918177,
  0,
  1053317912,
  1063675629,
  0,
  1053439681,
  1063734164,
  0,
  1053548935,
  1063680377,
  0,
  1053640136,
  1063517000,
  0,
  1053708788,
  1063252188,
  0,
  1053751402,
  1062899246,
  0,
  1053765830,
  1062475856,
  0,
  1053765830,
  1055907509,
  0,
  1053751402,
  1054962314,
  0,
  1053708788,
  1053966083,
  0,
  1053640136,
  1052968778,
  0,
  1053548935,
  1052020430,
  0,
  1053439681,
  1051168550,
  0,
  1053317912,
  1050455887,
  0,
  1053103701,
  1063659053,
  0,
  1053021996,
  1063701851,
  0,
  1052948679,
  1063633954,
  0,
  1052887443,
  1063458783,
  0,
  1052841406,
  1063185113,
  0,
  1052812784,
  1062826651,
  0,
  1052803120,
  1062401399,
  0,
  1052803120,
  1055758595,
  0,
  1052812784,
  1054817124,
  0,
  1052841406,
  1053831933,
  0,
  1052887443,
  1052852378,
  0,
  1052948679,
  1051927584,
  0,
  1053021996,
  1051103957,
  0,
  1053103701,
  1050422769,
  0,
  1052893784,
  1063632377,
  0,
  1052612665,
  1063649825,
  0,
  1052360504,
  1063559195,
  0,
  1052149916,
  1063365015,
  0,
  1051991472,
  1063077051,
  0,
  1051893090,
  1062709731,
  0,
  1051859771,
  1062281476,
  0,
  1051859771,
  1055518748,
  0,
  1051893090,
  1054583284,
  0,
  1051991472,
  1053615809,
  0,
  1052149916,
  1052664842,
  0,
  1052360504,
  1051778032,
  0,
  1052612665,
  1050999872,
  0,
  1052893784,
  1050369384,
  0,
  1052698699,
  1063596910,
  0,
  1052232326,
  1063580670,
  0,
  1051813936,
  1063459807,
  0,
  1051464533,
  1063240411,
  0,
  1051201634,
  1062933455,
  0,
  1051038426,
  1062554340,
  0,
  1050983094,
  1062122075,
  0,
  1050983094,
  1055199947,
  0,
  1051038426,
  1054272502,
  0,
  1051201634,
  1053328616,
  0,
  1051464533,
  1052415600,
  0,
  1051813936,
  1051579289,
  0,
  1052232326,
  1050861560,
  0,
  1052698699,
  1050298450,
  0,
  1052528276,
  1063554430,
  0,
  1051899969,
  1063497857,
  0,
  1051336322,
  1063340806,
  0,
  1050865620,
  1063091178,
  0,
  1050511487,
  1062761488,
  0,
  1050291638,
  1062368264,
  0,
  1050217114,
  1061931218,
  0,
  1050217114,
  1054818232,
  0,
  1050291638,
  1053900350,
  0,
  1050511487,
  1052984683,
  0,
  1050865620,
  1052117167,
  0,
  1051336322,
  1051341288,
  0,
  1051899969,
  1050695935,
  0,
  1052528276,
  1050213523,
  0,
  1052390971,
  1063507085,
  0,
  1051632272,
  1063405532,
  0,
  1050951654,
  1063208148,
  0,
  1050383275,
  1062924831,
  0,
  1049955624,
  1062569792,
  0,
  1049690141,
  1062160831,
  0,
  1049600148,
  1061718449,
  0,
  1049600148,
  1054392694,
  0,
  1049690141,
  1053485483,
  0,
  1049955624,
  1052601290,
  0,
  1050383275,
  1051784475,
  0,
  1050951654,
  1051075973,
  0,
  1051632272,
  1050511319,
  0,
  1052390971,
  1050118833,
  0,
  1052293730,
  1063457240,
  0,
  1051442689,
  1063308342,
  0,
  1050679225,
  1063068495,
  0,
  1050041658,
  1062749711,
  0,
  1049561963,
  1062367979,
  0,
  1049264168,
  1061942458,
  0,
  1049163203,
  1061494456,
  0,
  1049163203,
  1053944709,
  0,
  1049264168,
  1053048705,
  0,
  1049561963,
  1052197664,
  0,
  1050041658,
  1051434200,
  0,
  1050679225,
  1050796632,
  0,
  1051442689,
  1050316938,
  0,
  1052293730,
  1050019143,
  0,
  1046951764,
  1060437341,
  0,
  1045249682,
  1060288443,
  0,
  1043722754,
  1060048596,
  0,
  1042447619,
  1059729812,
  0,
  1041488230,
  1059348080,
  0,
  1040892639,
  1058922543,
  0,
  1040690708,
  1058474557,
  0,
  1040690708,
  1047233823,
  0,
  1040892639,
  1045441815,
  0,
  1041488230,
  1043739733,
  0,
  1042447619,
  1042212805,
  0,
  1043722754,
  1040937669,
  0,
  1045249682,
  1039769170,
  0,
  1046951764,
  1038577987,
  0,
  1046847209,
  1060387496,
  0,
  1045045738,
  1060191253,
  0,
  1043429690,
  1059908926,
  0,
  1042080130,
  1059554675,
  0,
  1041064706,
  1059146267,
  0,
  1040434286,
  1058704170,
  0,
  1040220611,
  1058250565,
  0,
  1040220611,
  1046337852,
  0,
  1040434286,
  1044568326,
  0,
  1041064706,
  1042932480,
  0,
  1042080130,
  1041512322,
  0,
  1043429690,
  1040379055,
  0,
  1045045738,
  1038991646,
  0,
  1046847209,
  1038179226,
  0,
  1046837679,
  1060340150,
  0,
  1045027216,
  1060098944,
  0,
  1043403047,
  1059776268,
  0,
  1042046710,
  1059388329,
  0,
  1041026186,
  1058954570,
  0,
  1040392678,
  1058496737,
  0,
  1040168467,
  1058037796,
  0,
  1040168467,
  1045486778,
  0,
  1040392678,
  1043738592,
  0,
  1041026186,
  1042165694,
  0,
  1042046710,
  1040846938,
  0,
  1043403047,
  1039509458,
  0,
  1045027216,
  1038253046,
  0,
  1046837679,
  1037800464,
  0,
  1046923780,
  1060297687,
  0,
  1045195055,
  1060016132,
  0,
  1043644237,
  1059657267,
  0,
  1042349170,
  1059239112,
  0,
  1041374749,
  1058782604,
  0,
  1040769830,
  1058310661,
  0,
  1040564745,
  1057846939,
  0,
  1040564745,
  1044723347,
  0,
  1040769830,
  1042994287,
  0,
  1041374749,
  1041477828,
  0,
  1042349170,
  1040250005,
  0,
  1043644237,
  1038557452,
  0,
  1045195055,
  1037590547,
  0,
  1046923780,
  1037460625,
  0,
  1047101081,
  1060262220,
  0,
  1045540800,
  1059946976,
  0,
  1044141111,
  1059557896,
  0,
  1042972276,
  1059114491,
  0,
  1042092747,
  1058639008,
  0,
  1041546816,
  1058155270,
  0,
  1041361730,
  1057687538,
  0,
  1041361730,
  1044085746,
  0,
  1041546816,
  1042372725,
  0,
  1042092747,
  1040903444,
  0,
  1042972276,
  1039315782,
  0,
  1044141111,
  1037762346,
  0,
  1045540800,
  1037037302,
  0,
  1047101081,
  1037176888,
  0,
  1047360793,
  1060235528,
  0,
  1046047204,
  1059894933,
  0,
  1044868839,
  1059483120,
  0,
  1043884755,
  1059020723,
  0,
  1043144343,
  1058530946,
  0,
  1042684647,
  1058038350,
  0,
  1042528820,
  1057567615,
  0,
  1042528820,
  1043606052,
  0,
  1042684647,
  1041905043,
  0,
  1043144343,
  1040471195,
  0,
  1043884755,
  1038565639,
  0,
  1044868839,
  1037164272,
  0,
  1046047204,
  1036621093,
  0,
  1047360793,
  1036963482,
  0,
  1047689895,
  1060218968,
  0,
  1046688832,
  1059862637,
  0,
  1045790848,
  1059436697,
  0,
  1045040906,
  1058962523,
  0,
  1044476655,
  1058463870,
  0,
  1044126347,
  1057965755,
  0,
  1044007631,
  1057493157,
  0,
  1044007631,
  1043308223,
  0,
  1044126347,
  1041614663,
  0,
  1044476655,
  1040202894,
  0,
  1045040906,
  1038099904,
  0,
  1045790848,
  1036792891,
  0,
  1046688832,
  1036362589,
  0,
  1047689895,
  1036830875,
  0;
 }
}